{
    "hashes": {
        "3rdparty\/.gitignore": "4099be43e69645dce1169a2b181a080fc50a241c16fb05cae2903909b5fc9b72979e8ec938c00cc8a80c7cff5831a384a078746978f168dd50ccb30c263a42ff",
        "3rdparty\/autoload.php": "2f0278f8d334bd9b1cacc8c6e8480178aa46e2de4806fad8e54ec7bb5f7f3c725618f4c2f252b95a0f9d568cc26133392a5e800753e743d0e0e62ba5b2f9de4d",
        "3rdparty\/composer.json": "12c796ebe1fc13c013a3835b8b8deb7776e05294a44c774f386305b7b5f6b4928e3d6114062f7c9dd32675455061d2936d448760d2b94fa15ff96eebcedd9d80",
        "3rdparty\/composer.lock": "f34d49bdd7b60e2e26e0c91ea5b5f6b8a3492edc4c826fd770d5667c0d49ec59eefd557727d097690c2d959beaf1f0c65be0cb1289c4959da9d77c6d8aa1055c",
        "3rdparty\/composer\/ClassLoader.php": "9acadbf32ca0ee18c534f508f20041bcb7629cb8c7c51ef7b3b967ecd93734ecee3afac65d8fc05116c0894ed39bce85cc3eb6bc65a573955291352d84d779fd",
        "3rdparty\/composer\/LICENSE": "f3bb64009f41a425df5a9bbab53490f0eb9b74fa8d6aaa2f57efb928edc4ffff330260666edeaa04a91fed708c3663371cf01b284f3a08d6698aaef7a23f355a",
        "3rdparty\/composer\/autoload_classmap.php": "f66f7414afde84059adb4e97e08fb46aa6869b0f2a4b71da631f5a63bd04a3c9f3a6049623624d80099b34c1a94c055605f34d94d6a3bd738e462256d204016c",
        "3rdparty\/composer\/autoload_namespaces.php": "dd8ee31d2faa9014fe567e1f954b5e7f450cf06feacbb96d4df663c59b1a36a0b7d26ad41b46354bd14f282fa7899298137208d1851099cd3ada285650efd90f",
        "3rdparty\/composer\/autoload_psr4.php": "0d8c4648739337c10d13b416ef196929171dc3637359e6468b17afb8dbb5717a82dca852e89e34cec697cab5d73a8971440446e4672da5767528921a4e59bb23",
        "3rdparty\/composer\/autoload_real.php": "fc4c792fd200032fa5f36cc92b6f332be43ad6aea269b8532633348130298eb66da58e3d3bdb8247170a5fd0474f91721acc9c4ace491fb1a504da33026c12b3",
        "3rdparty\/composer\/autoload_static.php": "841e3a693fa8ac0b5c9a39a2054006653470d622e01a3a22943f80de81e59478f090bbf4546d5d4b85b7567cd86fe90a78cbb55426a1914cf37b981e3b2338ed",
        "3rdparty\/composer\/installed.json": "4aa3fc366dfbe1bc010c108c0f5ce492ad1c8e8dc8a9b68d2f643df5057b31362a608e45fccaa7047f5136b3ba8fc3d448187d30d84396ac6768a2a4144a53fc",
        "3rdparty\/icewind\/smb\/.gitignore": "baeb9111886481c4cd9576bf876176426e9c067b8a24de6f78b98b496ee3c2b375b3f941b2629f26a4ed771566f131c6daabbeefb9d65be49b8bd71bdaaef0aa",
        "3rdparty\/icewind\/smb\/LICENSE.txt": "b4adb8e3a55a9fb884fd75685a23a47db77a088d0c1300b1bd58ae77d6b09faec63ba0e2a0bb4baf3c3a15973fc64a8d2d43e73dc136e0f65cfbd600355aefec",
        "3rdparty\/icewind\/smb\/README.md": "05eea271ed34a55b6722d737f5860b158930b48a50fe6363fc5dc87f36aee8d88c463c23904b1d5828d45179cac788045fa6312e9230f537fc701fbeff2fc5e8",
        "3rdparty\/icewind\/smb\/composer.json": "6aa1594b696ac84af00da2df0348b4a9f026204a2de2eebd8ff4095fa95c73d62cb830087cafb74054435c08a0c0fc7ef57d2c101da77f9f3c80bc8a237a4536",
        "3rdparty\/icewind\/smb\/src\/AbstractShare.php": "7b07b5757ac4f74c8cf5e4444e3bfa112225e9e30955bd91211b5467c6763623b7d3af336f3ab25fc848fa3ef51f92314a71a06e865ebe47b5746ca76a663aa4",
        "3rdparty\/icewind\/smb\/src\/Change.php": "7604b041718c76bad248597338b9f2c6ddcce79e76a68e7d8fdc642055e8b56d1685614da1015f9b89f48005cecfc340e11a52bec62d33be9c31f6f2c1979df7",
        "3rdparty\/icewind\/smb\/src\/Connection.php": "9ce4485bab4f1ad377c7a5b1b5721b1cedd5e78e57c3effa4323ea5707bf2eeb713369e8e4e9ede22772a778ec36706554d6b3695e11cacc536ac3bea2bb1011",
        "3rdparty\/icewind\/smb\/src\/ErrorCodes.php": "20e753f8ba1e28c323ae6f1a556a71b506cc926e677cde95b2df4c1406f528c2086949ebf4aee9b01217af415a11024f515d9c58234253ade61b644f8b9ff70b",
        "3rdparty\/icewind\/smb\/src\/Exception\/AccessDeniedException.php": "176c63bcc1698b3291e94bf8eb19eb640b8a46a6dcbbdb749c11e77463e72622be47711b07c6b8d2a6b4939c806afcf834480b26b3dac444ed6adc795196957d",
        "3rdparty\/icewind\/smb\/src\/Exception\/AlreadyExistsException.php": "9fd4d90d8b8c26f8a4882a5cf9c178c95df2164e22991c020a181f1a60494de42103d64efefb5d625685af4024ee2a14e5739714ac68187a0c2c3beb2ae1d7e7",
        "3rdparty\/icewind\/smb\/src\/Exception\/AuthenticationException.php": "ee93c52bce50e3dce319eb2b08ec9927633486ee39de739c02082a1e6f871a6823fce26044ae8270307f911645f1914583639d52680929f5cb71a95d89f94377",
        "3rdparty\/icewind\/smb\/src\/Exception\/ConnectException.php": "c4aab0bd29daef75ee46c04d24a96a751e379715c05bd6c9893967fa0200719bb9edee41ca4e58b20656c425a55e1150a77647f87a5d86fd7dbe6554d6fe1969",
        "3rdparty\/icewind\/smb\/src\/Exception\/ConnectionException.php": "67c64e0a5190fa6065f568e021eb3a40b0299c10fffee5c73040105b301e34ebd4d1a097833d952645ea103d29408dc82ac659080ed2ac7ad5adfa0569d96002",
        "3rdparty\/icewind\/smb\/src\/Exception\/ConnectionRefusedException.php": "3e4d7670001463964f5e9357fc90bde8c653ccd1ce2de44c6adf03af79e4c9617ffea3b9b7402de277c3c4f3cf852b49d159266986a8b7ba84eae012b87df589",
        "3rdparty\/icewind\/smb\/src\/Exception\/DependencyException.php": "f82d329912b5a06027e2eb5092bf96289a82944dc2cbb45df74ad07cba36ce0de175cb4e3bb50570fe5ea4a62054479b05cd8d159636c2624a5cc2f143f0f61b",
        "3rdparty\/icewind\/smb\/src\/Exception\/Exception.php": "efae0b4d3ee7b5957145120cf226e53b2f4e78c38ecd82df7820d8a29dd8d4d7fc3b0874ebb77a507e8d4a5a709e19022a39e5f22f5154b3955c5910106bfb69",
        "3rdparty\/icewind\/smb\/src\/Exception\/FileInUseException.php": "a886de00d4e060aa186812a88721ef6c2dbd5b8a990882bd7f7da05d8a8a88d41028e1f4169e897fc3daeb1804925bede564c90a91000cb74a624bd32cd25898",
        "3rdparty\/icewind\/smb\/src\/Exception\/ForbiddenException.php": "479bdfd062f36d85892c4832d4244ef7da39c0a4534a567225adb21f286b6458874fa0a97d4582b4ec3cd82cbf67294b809982cb813a912c63cd886c8fc5cd8b",
        "3rdparty\/icewind\/smb\/src\/Exception\/HostDownException.php": "6a57b02332534e9ccd8040e32e12422a7976039d1ad8225dfe534c5f52b54d4a0e78ff8e15fe5df9b8ba85c7ee565ca0968186acd4a5b21ff244d3bb831c9ab6",
        "3rdparty\/icewind\/smb\/src\/Exception\/InvalidArgumentException.php": "a2b545dbb1d397d7613f05704cb68b426efa9e91e355b8addcdecb5c13ad543f104493429b2a9fbb050c301934692189048dafcfd4db5b2660ad3253f7982dd4",
        "3rdparty\/icewind\/smb\/src\/Exception\/InvalidHostException.php": "0dddc45aa1b07760b035a3b96d8c1e85ebb8ef238545177cb190f55d601c4a85327bafd984d5b4546ba3326b087b517d81f1d146483a3b534d38a782266324a8",
        "3rdparty\/icewind\/smb\/src\/Exception\/InvalidParameterException.php": "524b9a3bdc789786a62bc89c97783ed0b0b7a91a307650712b51c693fd2e036b0971e9bffa3182546d65f018d56c736eb36b3d87c2a0aa3ab801bd0b36a21bd9",
        "3rdparty\/icewind\/smb\/src\/Exception\/InvalidPathException.php": "6368a18b010bf57bb8def7889b0a612c800ffa2d27933df0ce99dbaaa0e10abcec328e0b7c8c16118765c8e6b3b7458ea6a2b32ae0f08f6ef3516c96bf5502e4",
        "3rdparty\/icewind\/smb\/src\/Exception\/InvalidRequestException.php": "f2159aed66005f97efdc3428948756b64579f28fdb6844b41a344cd28c710e21b500369a98725860a544b972b51538f79a4ac7e7b110f9c3aa0bf07c12f91d51",
        "3rdparty\/icewind\/smb\/src\/Exception\/InvalidResourceException.php": "cdb6908b556f1b701871e2997870f1e7e1ae1fcff98bcb74511929a3544a7d372c24346286025d4bdf128d81268ebdb9fad794f4e3e66f12e782836502c87ee2",
        "3rdparty\/icewind\/smb\/src\/Exception\/InvalidTypeException.php": "55247fc6cd15e8348669e5b15bfe31af37b980bfbac149dd9846c302fbb376a67a1a9cd47585cd85887983c785856462f01377702f094cd7f12e1a9ff002379d",
        "3rdparty\/icewind\/smb\/src\/Exception\/NoLoginServerException.php": "b3b7f1a215cba9702e46d6d0c603871e6445502fd7b4fe67cbc078da769deafe966d84f982e52970a3db1ea28977d4004cea8dead7813ac276c643acf8763c01",
        "3rdparty\/icewind\/smb\/src\/Exception\/NoRouteToHostException.php": "94ff2852315b5d952f6ed4831d48e4e30d0c72d0e485a6f77a213180ff3653254ceb163120c32b577d3573a5665295807e72f063e97f0dc3a823b684550e2295",
        "3rdparty\/icewind\/smb\/src\/Exception\/NotEmptyException.php": "6301e942e4a002afef5258a3d13cbdf4da54e19f18deb214a04d09392ea6e9ed4358fcdc51fd16d3d088da3c13e7b1e3a00092424cf4205d3e2da3e1675a2080",
        "3rdparty\/icewind\/smb\/src\/Exception\/NotFoundException.php": "8f85cfdf9d8c602302c66ee025d3960d1107bf577433db44df6ae9b8926450c643c590110d6d52244de662abd6ee2b730462e81d0333882d4d0d7133ba4d3a15",
        "3rdparty\/icewind\/smb\/src\/Exception\/OutOfSpaceException.php": "b1ce08dc92f1ccfb1d242b28c5a22ef0d7ae65c722b573171223ef3971716001b0c91f18bfcef0ea7b9c1997ad78ed8224abf7ee2d0a9a2853a125e4763a65b2",
        "3rdparty\/icewind\/smb\/src\/Exception\/RevisionMismatchException.php": "24f525e9dbbd9936f67f3d0ad7122e011344ec9f72fdc6794844d85217a2de5787f5e5dfa43f0e96bab52670f2ee000a5e53e480595c47114ab50d2f23d9d51a",
        "3rdparty\/icewind\/smb\/src\/Exception\/TimedOutException.php": "c7130e412790ea0fc313ff5c8f8ff02020e9f64a8a369b03af89b71b1f0396e68162c1599bcb8444c9e93d85395e3e0a758535ead1110e67fff6926a7388766b",
        "3rdparty\/icewind\/smb\/src\/FileInfo.php": "560cdb88ff28e57804230a40d1e480a66bcd108bc6ff6d4ce21bc96c2c7ee941f8b9b97148f12355d2b8bab8b904bd5a1346211195d1ddec8ccbbf5358f5da96",
        "3rdparty\/icewind\/smb\/src\/IFileInfo.php": "e44aba59d0f576fc388865c5dec2ec5edcdf9610c75798315d4fb71bbf1eb421932bb607a009f37405277b13eb8c9e93a1d9a230e28e110f071b88b65de423af",
        "3rdparty\/icewind\/smb\/src\/INotifyHandler.php": "76ab4effd7341bca3c3cb1938a92ea72c126619e1e8db223388b422d136a2b2f2039babefcceef2f186f6d1f402f18c6448d6783af7a2ef8b3416956e0c72a5c",
        "3rdparty\/icewind\/smb\/src\/IShare.php": "fa36f8783b431e6a886c8f8f347f4d11f871e45c5b32b0a073b78d13db907ba632aadf78d8d07d40d1bb3519c658994818d64e2dcba1573e6f030ed830a5b5bb",
        "3rdparty\/icewind\/smb\/src\/NativeFileInfo.php": "46f8b1bd43ed4e319bdfd571b6076c5bd43e395237a0f34cbdea615daa6aa66894ce888cd224cad83800e537a39dde3920a61701e20207512b1abac3c0462795",
        "3rdparty\/icewind\/smb\/src\/NativeReadStream.php": "0cc14b7413d4ef1325696bb5aa2098ecb3a5bfc485f055608964cfad23c9bc7ba804d655198b8ad80d3faa912ec830f7e762f8204301950697d8cb4ffd5d4785",
        "3rdparty\/icewind\/smb\/src\/NativeServer.php": "daf42800b022e52fba88f58311680bc3269adf9fccb7e5f68de2fa4f3665ec0791c691f254b98966f8304925cf7d062f8901e6778532f326c0a856cac080d5ab",
        "3rdparty\/icewind\/smb\/src\/NativeShare.php": "4b8440c070ff4fc3d513072e3d1502415708911ec9941dd69ed3da1a4bfcd78167783a85c125b46595309c78e56a3c0f0d9110591f424029c59fc4f8ea08cb3f",
        "3rdparty\/icewind\/smb\/src\/NativeState.php": "ea3d84e8a5fd8172ec3e6e2977f74914c958cdfb0f082053b9267baa2c2d87fa21c5378265d2e4011fba062ec8a64210aa65b46e0e5c88d9e0ed12498e4f44ca",
        "3rdparty\/icewind\/smb\/src\/NativeStream.php": "29fca436b7afb28ac4b248448ecf7d1e5108ac7ad852b4c85a1bf7ac58e1d6f0e3600d31532c5520f8bb305bd85c5ef1cb4d7627d2395653b463fcb09f97010b",
        "3rdparty\/icewind\/smb\/src\/NativeWriteStream.php": "5ca3b7f7add625baaf818df5a1718f35003de81e87da76b373a30f30d6895fd09f964ad8f4c716919715faa655057a01ec66a667413f935da97bcc958563b5cf",
        "3rdparty\/icewind\/smb\/src\/NotifyHandler.php": "df83f1ad221ee2b8068761b825634744f3a2a0753eabadaaf173bb066ecde7739989f35a01018b2a589d8eeeaff6e20a9e71bfdbe410bfb5a3e82477f35032cf",
        "3rdparty\/icewind\/smb\/src\/Parser.php": "f796b1f1ac84218c7c505ac5f7864d30972ac3d6c720ffec7fa46932cba3e5ede44dda511ff76d07babd72f7ec9bce7abaf2a8dca60bf1e2bc2395830535fa3e",
        "3rdparty\/icewind\/smb\/src\/RawConnection.php": "519b62d62f1c8b64b693fd36bca8e706c5479a77ad7cdbe36a6091421162591cef18e1efba832d5139e61e0508863ca159ba2ee77d41f4b576151e09062627a8",
        "3rdparty\/icewind\/smb\/src\/Server.php": "a0fe1f9035be4dc119bd420fdd006b75d24332a21d4f46c172804e3196e7122bac7b18d33a684078bf0eb0824024324456b71f27259e863b1b535b6935c0f02a",
        "3rdparty\/icewind\/smb\/src\/Share.php": "b64f79dd6d48d8209217415bdf78673a2afa4bd5ec147ed5b212248e72d9d6db6550cda1d019afcd0d33b219008fdc98de84d8846fd00d8f0178ce92f67f80f2",
        "3rdparty\/icewind\/smb\/src\/System.php": "00adc19e146065b5533f2d3e0f57ef572ae19edf903697192d8353397d33e566ca7c8ef549d4126e775ee8bcf422691ffbb7e5262143a2cff86b6ef5bc7c0e42",
        "3rdparty\/icewind\/smb\/src\/TimeZoneProvider.php": "2b3e9af508102b8d4c6f7ae5e51c115532a696251b696e7970b85891c0ff518fc3c643fd43125819e2543038817de88100e296c669fd00b46ac8a793ad6a69a9",
        "3rdparty\/icewind\/streams-dummy\/composer.json": "f0e448892b9e4a3b5909114cf699d42b2becd907b6d31134a2bc4755a885b3dd8ff7abeaf5c2245ccccd11016f06c0ba6da09e1f32592cece4685f3cfa3e1c45",
        "3rdparty\/icewind\/streams\/.gitignore": "baeb9111886481c4cd9576bf876176426e9c067b8a24de6f78b98b496ee3c2b375b3f941b2629f26a4ed771566f131c6daabbeefb9d65be49b8bd71bdaaef0aa",
        "3rdparty\/icewind\/streams\/.travis.yml": "c9d522ffa2e4e07d928c3f7adabeb1f0cb88fc2700db484440990a77f9ab8271513f2a355463e23a09847af24c182873ee9667dcd21d3843a6f848795ef942e8",
        "3rdparty\/icewind\/streams\/LICENCE": "863fb36eecfe65472958fd3d137a503e21889f04e4e19860d72704cffc4fe55227c71cc414cb9d48194d3a342af01acda8cc3c1f58514c210f7e1396bfd43c2c",
        "3rdparty\/icewind\/streams\/README.md": "034af833f64a8d2c19fcc675e2e2a5976e7d064b15587e8b34852aa4464c650e418e9fa83f96f975df515c4e563e7db31b1251be4fd6ea4f0eb02cf8a217d85d",
        "3rdparty\/icewind\/streams\/composer.json": "af67fb3322fa4e2b5e73b45c74bfe3633c8d08550b96d6045432f8929699feb25a092333d5f650d32720c11169a08235d6d13fea7f8905b01741ae2a291f77fb",
        "3rdparty\/icewind\/streams\/src\/CallbackWrapper.php": "d068c5c20856f60ba387c69dfc7a2810cad796b50ad2e13df01b0a99e7c38d6831e15ff43ad03a995804ba021a0a53f2e9160475c5832d341810a268649f053c",
        "3rdparty\/icewind\/streams\/src\/Directory.php": "ac2388909ed94e2db3df2b0acccb4d0136b8d6f6b3d5087b40c9d601dd1ec3761e83e488ac4c916cc838c2e4ada75a99b5e73e36e2d2fb0703d8f21dcb444011",
        "3rdparty\/icewind\/streams\/src\/DirectoryFilter.php": "6d927bc6597a91de70dee7e488c7530ce331d7a18ca68559cfb0e036006063b22559694c83200f7335e5b166fb83487bd85a6a44121f45792f3a15da26bb376f",
        "3rdparty\/icewind\/streams\/src\/DirectoryWrapper.php": "fab56240b611a22d8530da0179b0b563c0e24ccee636022d30ec68558fb029812012bf0e29d0b14783f81083fbbffa59766614bec01288808fbf18ee0f261bc9",
        "3rdparty\/icewind\/streams\/src\/File.php": "1428e99010fd3ec939255f505b6ea0c37b284c6882d663c1234982b0f6fe30afc263377bd2d81837ec9e6e0e121b4a27c09891a87d35be6d0dfc4f694e5fb9c1",
        "3rdparty\/icewind\/streams\/src\/IteratorDirectory.php": "d1557602b330009cc2120df8d102c50afae8c929c50a25809c574ad12059ce20e42955bf16f7c76d79475af749714f7d200dee1479007d6cdf25e37e69166f0b",
        "3rdparty\/icewind\/streams\/src\/NullWrapper.php": "828c3df028c83154eabef6b6235232679fcaf6bed262f7588c1024ec649af4e7dac4c1a80cae5130c7966fd448957f97760ab3bd6e2f26fb00b3e6ace29b9746",
        "3rdparty\/icewind\/streams\/src\/Path.php": "952f032d97a1be5771589288939b9444b0fad849933dd432d46d371a345a2d2a5a9d668e871514b124d74c24f7d62f37f3a3cb541b6c7450c1aa35228b107674",
        "3rdparty\/icewind\/streams\/src\/PathWrapper.php": "0a672ac56802acab916ac4bc6d15a28f1944510dda6b3dd7cc0de6cfd1d02446fd838bd85508068a3f1c5d00920a3acbfb4c7013e964da5a7bb1b9cd25aa9201",
        "3rdparty\/icewind\/streams\/src\/RetryWrapper.php": "4ce030f33ea1b72ce0b3604b6d01851eaa48582e586b322d51542a395a83f5d50787db7418cf47c697d9e23b88361a8007a7c54f9af4df8821e81d933aff011b",
        "3rdparty\/icewind\/streams\/src\/SeekableWrapper.php": "aebbf573646de8e3da93929c720e2158bf3e906118a8b291671b37c256bb691eef7ee11f11014d98a939d7d1e19708a32f2f2a847543cd2b77f34b192e32898c",
        "3rdparty\/icewind\/streams\/src\/Url.php": "87425f72a9be10a65ac89257eacc7aa4892640221976d467f25d29e38e6fe5a419ca469242890cc059403302ce1db87ef296bf3fb8e00e0fba7c06c7cf83ab74",
        "3rdparty\/icewind\/streams\/src\/UrlCallBack.php": "4faeb57c683c20b77f6d0dd5929ec029be7cab3a59f6586fdefea213aba50f96a810ae4265287ce7ed44acb85e919df492d3f99bcd018171d1b148ca405c7baa",
        "3rdparty\/icewind\/streams\/src\/Wrapper.php": "c49ee2da08af61f29b6e0ed21194e8877d5b68b1993b95a66d1e1644c702959269849807d64cd904dcd2660c46e15a0799c46d28cf5c46a311e91508beaf0f21",
        "ajax\/applicable.php": "55c5fba40b1e0f0ead1a18652c0ba7a378fa4ef43f8f1f291953dc5d195f5b40496b082d19ca11cffecc67fc599b71f3e13fa75180413fd67d74500ea8d94a59",
        "ajax\/oauth2.php": "182d6239cf202494ef19844668f5f169f65dbb3eac0e18efe290ced1d91547ead5bcb1b680c5a18acde5b7d94120134810d03d2adcf421a5a9f26ad771136fee",
        "appinfo\/app.php": "56688c0f6fce0e25bf2cc08b9c957e7637d2c44017b61d4f6200e595d3190bc37162ec907f1aadcb65855461840b5cf0ddf9a095595e64bed88b6afd63bf886a",
        "appinfo\/database.xml": "2b951754f0ad8c8ce7a9746afa0389f2265200033ef3a767bda45298ebe8e71cd4cd7308a4c549ae1a58fdd8bc6815d16f9d1c9eb3041cd7e5fad95273a7df57",
        "appinfo\/info.xml": "654c54e12a206918f713d77dc03d22dd06992e2df13a10324aa395e499ead748ef42dffcd56797a71c0134fdf842b8f01e314e150b43fc093d980937dc8c2d89",
        "appinfo\/routes.php": "c0520beb39609ec83f2ca3262168d5278c96624a1dfa7f661406e173833cb10929ca96ff632b0eda50e9b5fe9d315268b3386efcc62c933d88e8592cc2e705cf",
        "css\/external.css": "9dfa09aea71495ceebba2cb02678902ebee2c2c4ed6846112d3dc9e667fcbd92433dd27b385ce4360067c650da8cf305c977fb7864d3a694447030ffdf4aaece",
        "css\/settings.css": "9852ff3bc3e0a049ed1fa3a6db7a01f81cc57073dc3322f0ee7143280d05b3aeb03176add55eeb76fb329a5dced6aab44546ad1760fa9c0514f68691ac15ccef",
        "img\/app-dark.svg": "834995353bd6192ca59492f42060cd884e2c33c38363d96704de15dc7538f007215181ed5de115d510028efe0b1b4027eb05ca1a593cd4fee101d0aeb324c942",
        "img\/app.svg": "8a2a255a487265b48ed5f327aee60049b5f89ea45fe37f0e577d78cddd3b1ae3d4afe38d779df5bedff9573b7f96e7cec8e671eef82b7225a49af432ed0a3135",
        "js\/app.js": "a2e84ec627818aff1287469d509d074922156d2634af2bf6d9bc219dac37eb1c7cc67c175199b8419c969e6ee58295556d73fd83d66dcd5ed63a639a79cdf4b4",
        "js\/mountsfilelist.js": "25f7c2ac8e3dce5d2fdf3ff7956ea190d87a03ca73abeab7e8e801be76fa7228f558d8d09d2fe140e26400bd5f7eb5245a4bacf85a57c03459025d8015956727",
        "js\/oauth1.js": "0bdf025c9182e1207557d2d983dd51a58348fd334312fc4b44a868c2b0564d68b2f3021a1d1ba32c306cc9b2fb33136a2dcaba872c997946a957d8c18bd83619",
        "js\/oauth2.js": "a22c843843be4491202df5c7b31dae5da51ccae98a1fd7e7fe5908b5b287a1d4a92b860781b53fe6250989c533176e8aaa98d31320eef158cae98beccaf8ff26",
        "js\/public_key.js": "2203ffab49bf602f7b7fd8120cb85adfaeb8fa710248c7a28a02ba41643009513ba466b8cfd297d9b6e221ff90d5aec322baadd672c97d1c786550101b586f85",
        "js\/rollingqueue.js": "a6a35748486776a76f911b93f34597c351d5538db7258ae28cf828b9a1972fe7c716cf399d8961097b2cf6dd69c6070d7df96e1e79d422821be49cb06723b94f",
        "js\/settings.js": "79dd65ef802be66d1238e9de005e54574f2b9129e3c5ea15ac8a9f4954367742d731307be7f55ddba21334fd16838d770396ae43fadbfe95cee42dfebce17c73",
        "js\/statusmanager.js": "a21ecfeedb951b84696240302f2aa6e46047092399f6269f0cd9f51eba3b64fa750405ef541386c0e8c81aa320a1f652ccef6c6d46191f0838ab0fdc76bc39dc",
        "l10n\/.gitkeep": "cf83e1357eefb8bdf1542850d66d8007d620e4050b5715dc83f4a921d36ce9ce47d0d13c5d85f2b0ff8318d2877eec2f63b931bd47417a81a538327af927da3e",
        "l10n\/af_ZA.js": "8769a97813c3c5209f07a225109c4294dbf74f35a3d658c0c6625bad004ce4c1637da752dac1725ec2e7e7e03c69949096342cec863890a8482d948c32b834c2",
        "l10n\/af_ZA.json": "bc46563eeed1a69eb1b3e7e3d7482353e179c3aa60dc9881338b48e7263c9ba3fb03c2261eb74adbebd6ddf4f03c78db4b27e9089d3541d14f6cd532f7bb2e09",
        "l10n\/ar.js": "1f67abc99f7bc83cba85bff006e2732881304122cff12db8f8ef2ed4698557c6e621cd20768b9f67fa7cdb8cba9ed64100c19f38c631fe8da49bffde6391db9e",
        "l10n\/ar.json": "44839f406e932804d8ff4ec6483d88adb4d363b98e444a9d3adf10f7764faf7e904abcdb0f685e99cafce7264be0463759a816f73cfca433e28c01bdb145dad4",
        "l10n\/ast.js": "4a54fee078e0bca2fde9f5352a31a342d7882e37be29606b6b905fa77860387335a5f88b36c14797e0a1e9d9fb74733de7ae71ec43d8973d4c5388363f1f15f1",
        "l10n\/ast.json": "29af621762deef8cc6ca92fcb6e5d6c0c5113b8fbf697601e885432807906bc8ad7487b7fa344aab2bf1ac4bc59bc0db9023aefc5ab3e46c52568a7ec606a77c",
        "l10n\/az.js": "801130277d5a684e2ce4cb9234287a302a181bf7e10e29b5a5a2d1e0f7a33949a759c9989c45e0140c4a62d9b6a60d616c0a42aa33d6be17c83693f1852207fc",
        "l10n\/az.json": "b1d41df039cc6110caf8561515111a5c516361237e27f1bba656367183f86b9966e8df8e5d0be79b79222d8fd9f9aab112b92fc8a5e2bc20e43fb18c6038f99f",
        "l10n\/bg.js": "9a2c54ed9e3bd06675f518bda351cbe41cead8da1393df7f40385ecc67083dc0504dbfcd6a8ca5794a01df77841152941e36ee9284fb788813104ea36ffb0afc",
        "l10n\/bg.json": "398ea32b4e191c1452554cb8ba1dae255cb39e3f420796526975a2f413d10fdfbb026f74ef5ac51e7c06ba130dc5a1a4bbfb1ad12e4ddf8d059af5f0e9f9504c",
        "l10n\/bg_BG.js": "3e08ef3f2c4e1f9708a41672bee0c2cc93d984ea365d87c9d4f0afd7716d21de9aaac643c65e67e2b5ff5d5b96bfcfc6b133fa1bebfe9cf661833649f05fc915",
        "l10n\/bg_BG.json": "7ae6a02b2d83f4371775ce19a6c83d9fd4a46f5b86ccae12a824c2d9223f1e74205a6204cca36ff28a3664929160d68eae338551412825ce7b2e28eec7bad589",
        "l10n\/bn_BD.js": "94528e5b1f2ef0ab0d0405ae162e4050615eabfbb6830fa2de4fefd5a7ace43364565cfabd8470e53bacbfad2e0fcb0848c57800eb7e82704c57faa39f1e19ca",
        "l10n\/bn_BD.json": "80430723cf379402db1b0ae3799e21fdf1c7c6fc0a2ede8ae9a35eed0e94107ce6352689ac9076d5bd3c103e3c5382bce1dc81efb0b687da3c92049fbb09f01e",
        "l10n\/bn_IN.js": "317100d807a12edaf40c4402cb38200c9fd42f78bbe07214e1dbcf1c44d2c565cab08c5b4975160b4d86bb0b7c64cabece7b7d21b4a7b63cf211a1a5285873ef",
        "l10n\/bn_IN.json": "8bb454aa60597698063a026f76dd9f480b72594c78ee0e94771e326319867d29d1a160682c9d3fd40e95f828b09487328b81ab4f23f59fb67ca0d208882d5fcb",
        "l10n\/bs.js": "c0ddee83e2ef3c2802b798d5157d7d89df37d97c63a28f916e2db4a4a10c8f1aca7f5517bbf29f50acba99ebcb848ef894a1c1f86e5439089a41372e9f7dc9aa",
        "l10n\/bs.json": "38f26dc7c6e32e7ba5b16ffc1928becc63e85e03ffee984222ac22847f425542734b6a40301884a8f8916524eff6eaf476a41e40d4cd73d356a4769cd67ba546",
        "l10n\/ca.js": "947b156785e14cf1cfa24bc87c37c9d10542352a6352420fa434d1e5fd83ea993fe33e9e026ff3b9046a6d6a219b75baba8cc1bc1eed041850b8683215b2b78d",
        "l10n\/ca.json": "e1f84e71a07e15b8de9f06a518650c8d40195da7a2adb4f7f89aa6f1b902db2ce9f4840d0db9d7c28aa6ab42ccc8ee74cbd92ddfe736b81fc255194577cd708f",
        "l10n\/cs.js": "1c6348796e07668f9ead55942075ce1b5772b63d887a7aa98b731b2d4e45e99070ac00bd7890a3895444363e94aee3dc584b239bdd75f739b9b1e87333fb214c",
        "l10n\/cs.json": "3a16aa7d963de6f282d8b588b1dbec8a921bce37616d14b619e050d328d24e21ec6558b70e332d6b71762fa22b52848060241f0404ad760c23a5f4203be19d4c",
        "l10n\/cs_CZ.js": "a1f111d9bf3c6544b29448e76903bf7f71b2e3ab28df51462e387bb3fa2a978374d98f427e8c527bfcaea98ef56b35fac5dbe76b6ba249cb64a8044fa98f3715",
        "l10n\/cs_CZ.json": "00d380ff597f3a8f9a30417f85257d5950ea9a3f0c153d7386aba2405719696bc22b2d858b3483855a3c0f64e32993c2d35b01cbde33e8e437eeecd0e372d71e",
        "l10n\/cy_GB.js": "857f9ca36c06e55645d7da758ae752a9420b42a06d253e4da036af3562c4cde6468d90739590761642eb66f95f8bf2f6ace19ace1d260b9de4f6c0be2b1486a7",
        "l10n\/cy_GB.json": "1ec3ce7247a659eeae9cefa5c6f3eaa0f8883dc61a3143107aa4aa62c5b90a5ba74690b8921d7fc06962bc5e0b860675ad45e467195634572cc5dfc52da20827",
        "l10n\/da.js": "cd9e66a18d6546f657fee37d75027bd4163c12875912c0ec87eadd4499e5eb6e34e0b7d2e2d18328b98126636f74f2a08ab078f724116d1342b258a9c7c718e1",
        "l10n\/da.json": "960d5fc37bb47a523bfc01643f2e9d41656a3feda71cc547694aa56964e7fb7d3c362502bc0bb25e990f025e417d0b338282111fc0dc9fcc9b41a82f3ca619a4",
        "l10n\/de.js": "3e2566c19311886744af23f57c418d6604b760a956db889487a971054c3341a5375f55309b2c7a8a41653ca4c91d351a021e6f0a6727b6218c14ec6a6ff852c1",
        "l10n\/de.json": "f2ae7e952927911915952cb8190117f1e0f7be58c5e42cbc6dfe2a71341cf60ce6ea7afc7a60e31a385ea670510a1ee945753c26634643bb7667d0670bf88831",
        "l10n\/de_AT.js": "dc9d636268b715ecbdaba3fbf056f001291f0803441f6b7e653d0d5783afef304b5d98381a0ff725467f4d412d75f51951ac2024e3f8489165da65bfb9425f3d",
        "l10n\/de_AT.json": "b36bcf8ac73ddafe7199c6367eede1226ad708674089c1330a396d0ae2615ca79f5a5b64a81ae3dfc7bf5a3e7ce6d485787c0f1861757ed3f77acb0b755431e6",
        "l10n\/de_DE.js": "2df269d4e348ac7b1325d687c1698663ce439290c3fa26fc153165b46eb0c76abd3c350d5f213f5525c2dddd52080e468bb4f2d58bed8e934b634a9c63851fa4",
        "l10n\/de_DE.json": "f38ebc33903da3eabf9c4edbe038f882f1b910e6d6b8434c74f5fa9377c1de8d3c7a3fba1060dba210a9291b75cf1206a741010abad90d8ee1d2a78dcc4b3cd0",
        "l10n\/el.js": "26cec10d0b6c51276b504e53eb140f27057704461f695a5d257543c9a213c6924f06421cc8c9736c23b1c0f6431d706a589b5c9b3e5f6ab56dbd177d414f4b5a",
        "l10n\/el.json": "16138db3cf9f50368ee2501bfdf7013490e81b2595018f4a6e9c00793b928b823cfccf275d1d95986aff4b1977dcf936252bd40be91b26597e32d2eb459a3e40",
        "l10n\/en_GB.js": "29117d1db7dd6680d0de488f5096d78df5befc010cbcbbf0518f85141be0203e85e74c69c3542bea6f1480c47527e029729cc5a5a1adbf95e718e095dd05d42f",
        "l10n\/en_GB.json": "dd3f2b7d6bc1b53ffeeb39d33f704220741ed2bd7a1de750df94b342eec559e19d5b6cb93d30afe5f1358ee6038bea5737ad150ac88eeb0d00c7e5d854e7a5f2",
        "l10n\/eo.js": "3c0000fce489cb7222f5a21c192c8471d59bd7c804b60f7d9318c4bc7d266706907c0c8e4c1342603872d45265ade5214911187722ab3fb1e812ba5d98d128b5",
        "l10n\/eo.json": "6a8ddbe16d4bc3ade7172fa0d5a659fad3f3c8c893ecb3456d83d41113611fe40b718cb61781e2e25e180726b0aaef4292a95618b0e2a1ea2771845ce795c581",
        "l10n\/es.js": "4deaf309e000c6e0591a023d5ae647d26d52528847291f3c9ff334824570aacb9f4e0c6348c8ec3cc0164cbb4b28751885cd90f3db96f4b237529719c6f29c38",
        "l10n\/es.json": "b166cf36752cb80e4949513953eec00b71c243a218fbeda393206433f21d3310ade474a7340eeda643fef54ab29361124a353a15cae3e1e479aa3f313c3321e0",
        "l10n\/es_419.js": "3f1454d0f22bdb71acc703ff88b424598b0881303510708f2ba60a1394b24bce458f3d843ec18430d90e64064fce35e40a31b5db3330dae9f9291114efa55973",
        "l10n\/es_419.json": "57c1986849b8ba389ca8cbdbef5d159cc224e7978ecac432e0b15ae205e7f363db8cabea57d62a9888ec76dff2ad0d6a3f8e002cd23a3f5ad9418ccc5fd28eea",
        "l10n\/es_AR.js": "70be8ca552faf2e466416d29621e3037593f71fb7d97e9c272cb12fc34eb286ed6d56b32e2ba331ab3f1d35f58d83ffb934ec04d2a329957687f8e4d3e653f21",
        "l10n\/es_AR.json": "3b1d74e5e5a238ea263ef6643e206b3858337dcf26551370699231e27acf7d9c842210feb78023efedd70fff5ac5f615602e97a92c42896de97ad497731cf20f",
        "l10n\/es_CL.js": "16e223113858b6bae68e222c8f1ec6457a4f1b8c90d9924618a204a19a5de99a831de643e11ee85491aa2aff501a1e2a9d82be495030cc831555660d4edab808",
        "l10n\/es_CL.json": "c1094de1c209344518a8143be4a0734f61054e704abbfe380f8fef61acbd0d9d9944c71e9340b9cf49fbb7d86b105350e170f3a4662bbc897c0ca798e68b81a6",
        "l10n\/es_CO.js": "16e223113858b6bae68e222c8f1ec6457a4f1b8c90d9924618a204a19a5de99a831de643e11ee85491aa2aff501a1e2a9d82be495030cc831555660d4edab808",
        "l10n\/es_CO.json": "c1094de1c209344518a8143be4a0734f61054e704abbfe380f8fef61acbd0d9d9944c71e9340b9cf49fbb7d86b105350e170f3a4662bbc897c0ca798e68b81a6",
        "l10n\/es_CR.js": "16e223113858b6bae68e222c8f1ec6457a4f1b8c90d9924618a204a19a5de99a831de643e11ee85491aa2aff501a1e2a9d82be495030cc831555660d4edab808",
        "l10n\/es_CR.json": "c1094de1c209344518a8143be4a0734f61054e704abbfe380f8fef61acbd0d9d9944c71e9340b9cf49fbb7d86b105350e170f3a4662bbc897c0ca798e68b81a6",
        "l10n\/es_DO.js": "16e223113858b6bae68e222c8f1ec6457a4f1b8c90d9924618a204a19a5de99a831de643e11ee85491aa2aff501a1e2a9d82be495030cc831555660d4edab808",
        "l10n\/es_DO.json": "c1094de1c209344518a8143be4a0734f61054e704abbfe380f8fef61acbd0d9d9944c71e9340b9cf49fbb7d86b105350e170f3a4662bbc897c0ca798e68b81a6",
        "l10n\/es_EC.js": "16e223113858b6bae68e222c8f1ec6457a4f1b8c90d9924618a204a19a5de99a831de643e11ee85491aa2aff501a1e2a9d82be495030cc831555660d4edab808",
        "l10n\/es_EC.json": "c1094de1c209344518a8143be4a0734f61054e704abbfe380f8fef61acbd0d9d9944c71e9340b9cf49fbb7d86b105350e170f3a4662bbc897c0ca798e68b81a6",
        "l10n\/es_GT.js": "16e223113858b6bae68e222c8f1ec6457a4f1b8c90d9924618a204a19a5de99a831de643e11ee85491aa2aff501a1e2a9d82be495030cc831555660d4edab808",
        "l10n\/es_GT.json": "c1094de1c209344518a8143be4a0734f61054e704abbfe380f8fef61acbd0d9d9944c71e9340b9cf49fbb7d86b105350e170f3a4662bbc897c0ca798e68b81a6",
        "l10n\/es_HN.js": "3f1454d0f22bdb71acc703ff88b424598b0881303510708f2ba60a1394b24bce458f3d843ec18430d90e64064fce35e40a31b5db3330dae9f9291114efa55973",
        "l10n\/es_HN.json": "57c1986849b8ba389ca8cbdbef5d159cc224e7978ecac432e0b15ae205e7f363db8cabea57d62a9888ec76dff2ad0d6a3f8e002cd23a3f5ad9418ccc5fd28eea",
        "l10n\/es_MX.js": "16e223113858b6bae68e222c8f1ec6457a4f1b8c90d9924618a204a19a5de99a831de643e11ee85491aa2aff501a1e2a9d82be495030cc831555660d4edab808",
        "l10n\/es_MX.json": "c1094de1c209344518a8143be4a0734f61054e704abbfe380f8fef61acbd0d9d9944c71e9340b9cf49fbb7d86b105350e170f3a4662bbc897c0ca798e68b81a6",
        "l10n\/es_NI.js": "3f1454d0f22bdb71acc703ff88b424598b0881303510708f2ba60a1394b24bce458f3d843ec18430d90e64064fce35e40a31b5db3330dae9f9291114efa55973",
        "l10n\/es_NI.json": "57c1986849b8ba389ca8cbdbef5d159cc224e7978ecac432e0b15ae205e7f363db8cabea57d62a9888ec76dff2ad0d6a3f8e002cd23a3f5ad9418ccc5fd28eea",
        "l10n\/es_PA.js": "3f1454d0f22bdb71acc703ff88b424598b0881303510708f2ba60a1394b24bce458f3d843ec18430d90e64064fce35e40a31b5db3330dae9f9291114efa55973",
        "l10n\/es_PA.json": "57c1986849b8ba389ca8cbdbef5d159cc224e7978ecac432e0b15ae205e7f363db8cabea57d62a9888ec76dff2ad0d6a3f8e002cd23a3f5ad9418ccc5fd28eea",
        "l10n\/es_PE.js": "3f1454d0f22bdb71acc703ff88b424598b0881303510708f2ba60a1394b24bce458f3d843ec18430d90e64064fce35e40a31b5db3330dae9f9291114efa55973",
        "l10n\/es_PE.json": "57c1986849b8ba389ca8cbdbef5d159cc224e7978ecac432e0b15ae205e7f363db8cabea57d62a9888ec76dff2ad0d6a3f8e002cd23a3f5ad9418ccc5fd28eea",
        "l10n\/es_PR.js": "3f1454d0f22bdb71acc703ff88b424598b0881303510708f2ba60a1394b24bce458f3d843ec18430d90e64064fce35e40a31b5db3330dae9f9291114efa55973",
        "l10n\/es_PR.json": "57c1986849b8ba389ca8cbdbef5d159cc224e7978ecac432e0b15ae205e7f363db8cabea57d62a9888ec76dff2ad0d6a3f8e002cd23a3f5ad9418ccc5fd28eea",
        "l10n\/es_PY.js": "3f1454d0f22bdb71acc703ff88b424598b0881303510708f2ba60a1394b24bce458f3d843ec18430d90e64064fce35e40a31b5db3330dae9f9291114efa55973",
        "l10n\/es_PY.json": "57c1986849b8ba389ca8cbdbef5d159cc224e7978ecac432e0b15ae205e7f363db8cabea57d62a9888ec76dff2ad0d6a3f8e002cd23a3f5ad9418ccc5fd28eea",
        "l10n\/es_SV.js": "16e223113858b6bae68e222c8f1ec6457a4f1b8c90d9924618a204a19a5de99a831de643e11ee85491aa2aff501a1e2a9d82be495030cc831555660d4edab808",
        "l10n\/es_SV.json": "c1094de1c209344518a8143be4a0734f61054e704abbfe380f8fef61acbd0d9d9944c71e9340b9cf49fbb7d86b105350e170f3a4662bbc897c0ca798e68b81a6",
        "l10n\/es_UY.js": "3f1454d0f22bdb71acc703ff88b424598b0881303510708f2ba60a1394b24bce458f3d843ec18430d90e64064fce35e40a31b5db3330dae9f9291114efa55973",
        "l10n\/es_UY.json": "57c1986849b8ba389ca8cbdbef5d159cc224e7978ecac432e0b15ae205e7f363db8cabea57d62a9888ec76dff2ad0d6a3f8e002cd23a3f5ad9418ccc5fd28eea",
        "l10n\/et_EE.js": "1b4802fb3bca5200c3f6ed3aef87a1ed81ae324946b39ff60d6bcab155ef8f597de28650ccd13619b4d907535a0e00adcb691346726063844953ca9266d520a7",
        "l10n\/et_EE.json": "b9e075f808f7cfa29e35b608404fa02648eae2c731a7c1fd59b58928e888f14ce5cc06f2adff0c18792d03822a45e196dce4f6d9ac30c6759dfc91f798f2f82f",
        "l10n\/eu.js": "1b4476347c27a8168184d019d6c39419652b27a1474f9220d7511bf636a9630ada9d107bb8b2bab326de3bb3386e5c41fe563bda916fef153bb887427e381e77",
        "l10n\/eu.json": "374052235384f1816d1247d41bd1fffb2398c4f363b854120e8fabce22135657a9e63be709778201ffd64fdbce76aa33340bc59d1530d123369f3159043f8429",
        "l10n\/fa.js": "2535d780394ac3a8668cfdab3dfa2f42b4461a13e726688c945503d08480be0d051134d73362d6d433964fdc22d9ba2dd4ba7a523ab42190ca2b107505b59ae3",
        "l10n\/fa.json": "853d04ca4291fe86611971d5a2fd91a2aa29fb57512c7938192edf9a84207fe68ac0d0ea7294cc2edf9d8797be9a6d9e830b6e87ee2fc6a60d2b49eafe20ad60",
        "l10n\/fi.js": "33d9d20a7ade3bda93be2ee61b0b461d6c14f9c20342c6f8f687cf768da279dc87db84109321355be3e324ee35ba12854d9a01bb59953f16e9e7c1d60460c0fa",
        "l10n\/fi.json": "fd950642a3d9eb2d0f21c79eca350e520dbaf4e335eb732034d6e9f36c078af1ba00c0e64e0f7dbfd4bc9949dd527dc15a9749f9a4b6ac1eb49dfc0411b0bc01",
        "l10n\/fi_FI.js": "209c9849562fc9b9cceb86e30b6869bb19986a039bfdfd98fbe97e330865ffc17ab3fb54d2222a49d8e111c50ed5bff908ddc9e93d61ed047687042f8eb4ae63",
        "l10n\/fi_FI.json": "06a7ce74dc661b00846f86d6cf3c50698205878d08c8e3a331fe99be4da478ea04b7620a172db6b7da95990b40e846ec7dd7b62bec8e3e4f16e88a46e9da61e9",
        "l10n\/fil.js": "9da0ff5123e5266da20262f65af9e4ba6435a808f63ff30d12aef754bf63f663ed506bc876af47341e59ff7ce53cd84ec608b170aa98a0ddef0ccb539119d324",
        "l10n\/fil.json": "117c87d99bf3411beb581cbc7e566bd748910206d41263e17dc1b51aef0df1347ea12ba91a4a6d0a5c4d8be0d57724e79f5ecbdac01a13d146965e266c985a2a",
        "l10n\/fr.js": "6eb08433eaf011a317e20bd9f6f392eb11a95741997cf6cd6fb2f6565ebf062888f5537b8a41ac7d3246af93c65941f29c4ab40e53f3a120174203c4ebde3a18",
        "l10n\/fr.json": "725f742d5da03c338c740b70e52e68987e215ec4d48251a799e768961c01ebdc9fcabec44b5ab91d508da91fd46fcd266df14cefee9e59b456f4fa75ca83cbc6",
        "l10n\/gl.js": "086e2de6778ffe7e8f0e5e9d886abd8900c4138f57676e8c36ffc6a120230124fde0c4d610d599dfbcb9674fa61ef76e2d8a2af21135636375096f1758a5367e",
        "l10n\/gl.json": "5f0eda6e15a67295b487e5e57e18ac97a682a9daed7b8579bfc84ad4dd832a114df02d43e84ca7af01da6110954c4efc3e555d8950d9128e07e59ada36e5e92f",
        "l10n\/he.js": "91365b7b2515ac98ff4bd80068adff9320c0b11f0eeca9ea219ccf416e0d0d8e4068ad0006a8c89b90ed546817d802cecc2d90e37469d9d83dd5f6c8313d58f3",
        "l10n\/he.json": "bab2314d68c40d6578020603f1b11165f7ead705ac16fe8f3808d9dff3abd3875153de5799410413c65805b669fe73b526f41cdd0891c64a6126ee676bf97cb7",
        "l10n\/hi.js": "f2a02dae98706820961d40a9b6db2e0148ac73bed4673c44b88aaf7b8f098fe4799547c3f371021695bf3c580f3dbab13fc9bebbe4b910a6ee71816ece864d7d",
        "l10n\/hi.json": "581cf9c151c04902263491761e48f524b06cd4e24879b52d330140bbc8aa6d59022764bec3f976c40887748a2bd5c4eb7727ebd5ae305d845f0e1dfef3ef570f",
        "l10n\/hr.js": "825a9b3a9f3c533425472f1f92a517fe336fa827fab65a310444ee58a781adfa4be635cb73dcd72408e33c047046a8b9e3baa7bf0ca423a016a3b7b1d1a0fadf",
        "l10n\/hr.json": "6c4c47f91fbaad81a72aa13487c5b892b8c7aad97b8245c4f53f2b693620a1cc3b7433f85db50a1252550cecf37c46c8fe16d93f7a8fea87a7f4c840d1109992",
        "l10n\/hu.js": "d406052e8dca72760f43074521776fa4491403ff986bcb7ba6d7aedf91398f8d15bad2a6043391aaccadfc59e8eb9bebe3b547f1bb30e3ff00458582918342bb",
        "l10n\/hu.json": "e4eccaf870898457fca410bf42059eb4adf49da56fd052bf2482632d7808c9ef8a07b3c29276e6d04bb0d4e1a96278a7172e76dfa5a21408e4152049c734d5e3",
        "l10n\/hu_HU.js": "a685bcb33e174df858a8ba6d65e1f0cc9df8e03baf05297b20967067052420b61995123b65e4182574146c6a355b4fa0bec19fd4877c26d992e814c571dfd293",
        "l10n\/hu_HU.json": "d629036d6e063c43c2f0a49ed6a2164dff3fbdd42995b51463128cf475a4cd1fb2bec5a6db27dc5ab90f371a1cbb3799fbaca92eae742e4a4d4526cae9ec2003",
        "l10n\/hy.js": "dcea4e77320c681416f64be29979a505e952833a636d49ee460de255d77329d6ad17662764fcc88497864b0ab8096198ced09fd4b1cbb26628bb7969dc35d7c9",
        "l10n\/hy.json": "0fd9e628a8ececb994de16ea50a5c0955a7f43f14a56c768c772ea648d12e91f7369dba70f6dd345862099dd43005dab96f1523e8a513c2b34a7816a23c75196",
        "l10n\/ia.js": "84dc20af2c4dfa64789f9e8ae7c24a6d4462656eab65885b44ce880dcac3483b2d7d3fbd3d4c5cb4f8516b8c050e61572e95595c727334817c8101165c04850f",
        "l10n\/ia.json": "5b912e1634cbc31599725e3318445356e78c6f19a116daeb5e8b920f0bd705f180ec604794d413aa12503723cb724ba5b3e616ba569b58adf635971c45a9d738",
        "l10n\/id.js": "54ea124cda8524558a4319cf5a8a2df032b20ae4604925622c157fdf46337b2317f8d6cbb45417e3426761a6eb204e93d6a804cba43598568a92831f8a0a9c80",
        "l10n\/id.json": "8982ad07e423daf58921f915734f98a6b3e78d6f94d57b6c95a9985e300850453146cffc75bceba642970bcd79b15f71db0d90789bb177ce80591cfae49da6d8",
        "l10n\/is.js": "dafaf2d5b3ba29a00688e67fb81e1fb7e6e37c30069bdb4fd749533f97ecaee5901c1336461e3806158317fdb17630b451765076f6b02ce165d6ea2395b38918",
        "l10n\/is.json": "e10ff5a3c5067c8bedc58063a513bcfbd4387010a966314305249815a110dfab31cd4dcf161421d2ddb985807a2e3c100f7ce981673d0ce98042dc5cd72fd928",
        "l10n\/it.js": "005c06718d74340c6dae157b74d7388e675ac71397200dba2e80b2b6bb778cfef6e810430449ba8d387a507bfa37512f7484fc1d0f6f9f019c9ca2a49e412985",
        "l10n\/it.json": "1b878d7ed6e67a50e61db5294c390d3963890b4a98e5a0cc7199d5c15817ba9b92d8ba2839ea2f67ea49e351e2110c4aa1fa11226fc23f96d0dbd9c412eea84a",
        "l10n\/ja.js": "ee1d8ce66bfacb2ee4fdcaa1aee6ce7b8911a878dc71ab5a8c2e7dce82d6efdc996ad0fc7d6cb5b77494b5e1725a6e18602d6987596d71777e90b69cf9565101",
        "l10n\/ja.json": "236e8e5ce9887db2c1c3ce8a9f11e0c0275cff5e5dd2cf8775bbab18b30a23e12a14709e461082e0870092a51ba71f2d47014a18ca249e9d32252005ee5a0b19",
        "l10n\/jv.js": "8c19efb72d9944b39d14d5081d847e4fb3e8dadc0ac500de39c72e639fc1a26a10e5b223009e81060edc4d7280874fcbd83bc3f875c851086beb08894feb5225",
        "l10n\/jv.json": "f069854c788740919884f24bdfddb462f3366fa7d48508a7ed11d386de40c9315d6b1f088d2d752c17115647ddb12e6f718cc71c69bf637c753e5dba109c9d06",
        "l10n\/ka_GE.js": "796c3c45db9d3b070f322d9ba97259bb17e5112d0cd0e98f9e4b1b272ed8f95e233d02853b05c90e61b52b9a3abdb5de7d2981f7e8190db847cc166089b15053",
        "l10n\/ka_GE.json": "3e65457f624bbf79db03df5788cf620edffb0e7b70db6f68cadf8138639714d538bc5ba503407a42df30a7824d282c386cfa878914a835e56ca2f3e0e036a3aa",
        "l10n\/km.js": "da7e6f254be03c0b69bb1c07620d7c2a5672725712942a7276def0275c67509ec8189dea4c06cbc2dcff3573c76bd90ceb6ebd6152ef2cdc41a535098142a636",
        "l10n\/km.json": "be7032420349708e53d6324d4ba5a22e681f23bb1ae645faf46044db80451d4bdc102a341fe6591b3bcb6bad2baa43de275393a87e6a0f4f2b430615ea8750e0",
        "l10n\/kn.js": "e80391d8e5f9a80d0f076210ff13489e7ac21482af3c9f03f683337bfa08519cfb8fc3b82c637ba3f0e8d5d84a38cb9f9a35b9df0d9ecd2648f1ce5ba2150973",
        "l10n\/kn.json": "cf10d3e1d8a32e761d64121e7a3175259ee07a8e606ebcbfa4e026fb09dc32f347df0cf005e4e88c47bc2cc6fe38c52ebb9c1bd27bd0f1ad9f36addc625ee3bc",
        "l10n\/ko.js": "a938f55544e378d4d6e6c701fe4548460aaf228562f1a22795f45232059528f41628dc13620c87004794cff7c60d5e60f6556fdee85e366ad7febc501dda30c2",
        "l10n\/ko.json": "445e1add7196aec6f1e5c863a804f326b5ec8b1fb5630d4c59ca3db7eee6a61683f5bc755771489e7e05e1e7747753fb0a4007c27ef136755dc2d1f4391ccc1a",
        "l10n\/ku_IQ.js": "3da4354fee4c9865236ddfe29ee44f4e9da3f881dbfe784fdc8181481d755cb64314a5ee1b1fa97fdceb50aca4cbb23bd515a4c1686bdf208d7b8b9ef3e0ebec",
        "l10n\/ku_IQ.json": "b0f43d8ac4d0eedb6c3c67b230f5d35167e82dd54941f183657df0c6884486ebfb123294ce22c90b884e1b3b26b6b69f7b2ab92b0c92ca5aa3799eb1c27999d4",
        "l10n\/lb.js": "15ab714f68572f67fb79e9307e41799966223c01ce76635f906eb2823f324799854f8f6a0624f8303b9aa5045230e1aee6bc1f782a54c29b76cabf79e3a059db",
        "l10n\/lb.json": "14d16a9caeb53ce40af3262264510884aa6492e8be87f0a2d4756c2a5201aa4c5787337bc57de1e76beb0c54c33dcb677307d554b10a75ec12d9aa7650a24076",
        "l10n\/lt_LT.js": "e08f2897ed680a1f1b1dae043093139cda1b6f11c3e5e3c4340e8a6ddc8716ccf8163ef5923823cc24e28be63d69606fc31340ec3484795d18b7f86759fe2bda",
        "l10n\/lt_LT.json": "9bbd71d7d8d4f37cfe7ae23d4749d93ee88bd4cd74d524f6092042b74f09e7cd77f78385a72a55b5d23dbb8e8a5a52ee72d34cf735947e9b0c382bd25ce1fa37",
        "l10n\/lv.js": "a7c69c635431fe5dee4ca1baaa6e8ba0f0ae1d18e61fe4f95867eaae43b7e4e36bc275383543ff85a79d669737cec624f0d8be7addf47fdc3ce22e98a9ea8fd2",
        "l10n\/lv.json": "850b77b900322042a7442388f9c0c9a7fc1f1e12f440eaf061cb1f221c1614f9c862ffa215cd7a007b25bbe80bdbfa4a10394b33860d28408ec38357ba3a7fcc",
        "l10n\/mk.js": "290e29e5e055115a5e4ea542b5ac2a8a6deb7706dfac1d2214df746525f5c869c2d76f0af79a8cc5eaab3bf3f363e635ec7907896dfa5cacea3f436307c75382",
        "l10n\/mk.json": "a252a479b17377301fc3449124b85967ca90ea5e592121a9ce13a9395377a26c4a131dc23cc78ef10c1525aba729e5d58c7f1bcca0052e8797c946ff357697a3",
        "l10n\/mn.js": "78e7eb58a00a73c11caaf1f41a5f6902292756b3f9eee99bc71eb1b44bfb235f114458b0d6f824f3b58c621c59e650a09e890d1b95da325e70e988c55e75475a",
        "l10n\/mn.json": "c03ab3267c605a4c7430142d3e343829e4526c05d1dd7135132eeb3a84fa91fa52fa2994f2a0218d77c105fcd63679ab935c14b286a6c38d5f934eba814d34f9",
        "l10n\/ms_MY.js": "e15936f1aeabee548aafcb95cd6419587f9acdfd689993387b8d35199e9d7f34c25cb1245d5de6c98e6e19402e4ee55b572f0df68813fb2132d0db0973367068",
        "l10n\/ms_MY.json": "2c91486296d74a1443d67b8b6de277bd97e27b518bd22f783f2d66b04b46618caa87f4dffb6a30828259f1b4c1a85de234b300ff27abc239576ec6e816147317",
        "l10n\/my_MM.js": "3083367a00008ad27a429e635287d855173a4a879f0b0d8e6948742d82a47ed42c29862598909842d46c31aa83174b658fce25e5498bb9625061fe72fba0c1ec",
        "l10n\/my_MM.json": "706594342a9d9948d9986148d41826a37225574d9cbe41fe07c974501328b301aaa62f4d9ad83ebcf806fc3d5b5f2e9d77276b1994e7933a16142f580c05255d",
        "l10n\/nb.js": "f8a5b08da5b56e558fdde7a88bfefa6ef7784dd98ecc0bc9c6ce1d07814e1fe000bb20368f4b04e9d732abf9f5d703349ff798bc191bf2605570b1ca613bc42e",
        "l10n\/nb.json": "5e7ec8b889f6e7fba5b6ba99aee61f1c4b33d6e3d946507a9c5e9dd14dc35ae511c55ab2c6662e029211420f15b9836ae7009d78b89e7d8fe7c9baa442197b7b",
        "l10n\/nb_NO.js": "c51b66f3c241e06f883e35d1a020d935ee192fb3508068f187dcfa0a431dde89f0a217ffb7fd45441cbe67e75d8992b4ad2dd0b24b69c8387813c9ef427825dc",
        "l10n\/nb_NO.json": "c2ed24f1f38620c54ef549b81a9941be37d624beb4325728511973ca68f593bd95b1270402fb416b37ff79abfb31026feb8f9bb115af023f8d2eb79b727133c3",
        "l10n\/nds.js": "97080c94240b10e681ab2d475776accfb5a1e2cff2f4bc57b830931221baf6d4e5252797c65bce124c1b74a0158b51acd899dc4dcc4b21e05e67a023f1cf0625",
        "l10n\/nds.json": "9b3e6c2c4e49a6f4de08239533a21b49db0fd6004a95191c72df2170bbcd19b4fb24e14f1b0a8fff870edd10f8c822f226646a9a7f7f0f4abdaf31511b8bf098",
        "l10n\/nl.js": "08117db7a899f732ec857e9288d6e3453de560dc30427b70d99c5883769802c35d24704b2e356568d687f4ca07e78c4ecda73a6e208f5fb8a506f192b8626458",
        "l10n\/nl.json": "b5c47d688a122b72968ffa2fe4bdda6b383b0666d03d587afa2ef86013b71eade5c0547d1614af42e2ecbe985cb56a30dd9a7995c0281e4c15e30762969904fa",
        "l10n\/nn_NO.js": "5dd980abb7e399ee565433a8814609725cdcf33559946039227346620f4fe7b68b45fd54f68f633bcdac4952af3d924b3eb23a5244fef94a5f025145d76020fd",
        "l10n\/nn_NO.json": "2fabde606a4b865aadd2e06b05b0aa2bf03fb76f46ed25a8174ba4c0044faf1d98ea1f6a38576fee7aa4a76a0d0b414d279d7fefb864c4a9078456bf8cfc658b",
        "l10n\/oc.js": "585d8facb350ce2262c06724f86421d50f2d397fe93f68e6463f6239dce49308a1c68a7916ca63b32cb9fa39cf28ef01112c9e61a834a2dd8c2dfb144453491f",
        "l10n\/oc.json": "d1876eb7bcaf72970546d485c11645a59cb4948ca7f8bf5d82ea198950cde458e602d55fc7b3af9dc5c12c78cf9614de4a6dd2aeb9db67d4ec683c0d46fe3b7e",
        "l10n\/pa.js": "d56fa31cccb66beca92f8dda9f77a0329fc11f8781b07f630bea85f39e889aeb766982e29974376ae0f30c333153b8b97ab3f002d9298ab95b96cf35227132b9",
        "l10n\/pa.json": "9fb2b14042f1b15458d1573e2f13046760f0a75bfcc733b3b5f207c6ab53cde3d9f87114e95ed475160bc091e899d0ba384a1bfac04ae10f336005bad5400ef8",
        "l10n\/pl.js": "dc6a329b1d7af33df3b1284eb138fb511619d4da78789a559884e683b831c31a415abd130feba142394608562113295f2a04c0ca74793be853200a32b363bbd3",
        "l10n\/pl.json": "30087fab893575744ea83eef5e348f044e68929d370e36edf5b2831ef7faa0777c435a45c9b205175ce193ad10fb0304f706340acb2cf7091480cc99024dc65e",
        "l10n\/pt_BR.js": "ed3a69a0acf2ffcea4e55d5a26695dff83026d76dfb1413c84a37358ca6848a877eba20da8539d6177d194ddc6d1215c4c811995e9c2ee516e1d7cf6318e44a2",
        "l10n\/pt_BR.json": "34657172ab8136bc8a454917902a909c606f0cd49fd694ca372ed6e0743d5877956000926fa0f96fa52e8cd0e882c527d40b86202d47a8ca9ca4bc7444e510f6",
        "l10n\/pt_PT.js": "2ec0b79087895352d0c5a8a076bb02dd7cd1535bfce49eabba7c12de10b65cd7a37a757b170ba07e368d2e1f5a908635e11c4f0a3e0495d5aee11a02d76fcadd",
        "l10n\/pt_PT.json": "35e45d38fd0e9fca665d964db00e8a39368d19c88e75fa2a5228fa17906eaed0330d21658c03c543d19edabe1f22c5bae98262e8ea4c0111c85a2c0732f20cb9",
        "l10n\/ro.js": "3d1daa9d9a64bcfa57b73aa1fe81ebf1b0a3f837bd55a03690f08a44ed93d6add002395b9b605aa5502c396f90afdf8f3480f989de31f230bafaf824f3964807",
        "l10n\/ro.json": "a1fdd79e6939f6b30a84f2c48ecc1b328da1e4fe826161ef1fe78899a7b9a17fc4c3984738cdfeeab0a1f15245d13eb00ee193cc3462db193e30e6fcaef8875e",
        "l10n\/ru.js": "954e96b65a94c527438d68fbae4dbe5f77597be99ec9265aa0fab90c9996b4c85b8cbbb0f5d9b2daaabfddcb836bdbb6edddba4c579fc50895c6b2d0fc8621a8",
        "l10n\/ru.json": "e3bcd018e535ea61d63dd929334c571aaf9f170e1b0e272bb76f7a3d78076828c4398a3adf0faa6c998ab7879a344b9b70ea64ecf656fd7f06a566f1091253cd",
        "l10n\/si_LK.js": "841b34feb4701ee2edc21f077b2e115a7ec631cfecbfb59ff0128b33c12e13f8cee0f35f28ee6de024fd8cd8a4df089a6f9149005a2009677ad5bed3a7787de0",
        "l10n\/si_LK.json": "b18128fd335a05f864c4eeae0a28bb99d643f0cfb2990845eddf09be5ed635e9b689f5d3824682e39af063412d4e9568f43812404723ffcd30c3a1226a342337",
        "l10n\/sk.js": "33ee19d3caded5da41b462eb3679975bd1ba3b406bc95beffaa68abeebcedf5410c3b05175bf331cb23234b937084c9950ebc965ecd1c67505946e54f6b6a464",
        "l10n\/sk.json": "971eb860c0c10f3286b15ad070b5c3d7139f243f75347fa2e4685649ffe837c59efe8f7297fa46fd12105a830385cb3977fdc03407717ea8feff903997019e8c",
        "l10n\/sk_SK.js": "425470a318306c5fc22de8e112d307c93fac248f50893470a845bbe336b42f02db77828d08e9c18fff1970cc74b4759a1f9bf27685bf5ec293577764b823567f",
        "l10n\/sk_SK.json": "2dd002ab7499b01ffa8285ff17df846df96e5dc13839078b36a5822122f5c57bbfd617aaa66f8d1823b287c6d51e2247edea86cd0d763efc93edc9852c2dfc5e",
        "l10n\/sl.js": "479288bc82298777bfaaeb7819061c6e7eb903a5e15d729047a2b0d493c93f3dc9456016a768794936714e72d96f638374091448d56263b911ae696c6ef6c39a",
        "l10n\/sl.json": "af46e05a9e67f5f30486cb06f072f2926866fa8f93ce05bcb746f5b934b1477d6b97a7f38d83c930b59e3cbe72ce9f614a1674903e61e9439a286a2f38aab6bd",
        "l10n\/sq.js": "a363d52389e9ab79d87b437e9cc8b88a2c972ef1e7a937bcd299eacffa4002928531be460b01502a30427b2bd284e314ccf274576dbcf61e88f14b7bdf87f36b",
        "l10n\/sq.json": "2dc09f9fde9e78d11866a7302c2bbc2761ee07c7858b5d71604d969b63db6744da5f4687c7b8a11c8a08677065fed64ee6063f71d42fb64942d8efa5d40589f8",
        "l10n\/sr.js": "2c825684750f4a3f2408f1c398da36941f1deec1628574acb6f2f7f99c26f71768eb6d7ed941bdccb2cca14e5a971414fba330fd00fc4e6c9177f452707024cf",
        "l10n\/sr.json": "e4413e0d2fe9821655112ce9f9094dd82b10f289fdd70cde8986a8fbc319a629835fba913d6c6ec99b80c69554c538c6d21050df7448952424d820086d844871",
        "l10n\/sr@latin.js": "4ce080a9380595a231f73aaf1951c2f9f7a8eacf9aa909c3250998a1766747b5171faab8c8a807cc2af5ffcc6d957f88b314908d9816b112241486bab47719e8",
        "l10n\/sr@latin.json": "3b682b4ede6253c504a65b287f57251aad7da3be8edcd8d56e0845516b2e24ab6a5540515bb6846952d38a4aa2c368ea54acd600a99db7d60c093334ec6ecaf8",
        "l10n\/sv.js": "b8520b9fb916862c010a1e99b0763e5c78e8f6f5fedb7f9cbbb2fff9c6766010d8fda9bdaa13a7d4ba49f441d7cc81880fc18058ba67d88d55c28e5f24ca1bf0",
        "l10n\/sv.json": "81801f67d60379b6fba44c997bde9b9299b770dbc47dce5d7c89eb49f65a68d293f1134c8e19dd86d0cc0c3d49602382b28824a66f07396975a57fa08835fb57",
        "l10n\/ta_LK.js": "28f6ffdbfe9d1e4f3a85be727a19c495f7666bba368e5b3bc5e2167bb05820c02cc11b5b5ee2bb077bb547b11b027d589280f114c3a1fb128bc1c45fd60f343f",
        "l10n\/ta_LK.json": "d8dc824b27a5c9b5784b58a0890c5b9f6aca9c941bc97a715119ebf9e18fc239ef1a19fd6fea9c2587c4f13ffa27d264c5566768c1a2706bcbeb08781d70c748",
        "l10n\/te.js": "9618b476fd0635b5975cdb4c39ef6b141e557c5a57180bc899aa48f592b8f6db3798100c92ecd91ccecf7c1a51bb166d1f2ff427ae038c8b625bc8405f25e53c",
        "l10n\/te.json": "d0b2621ad6b80fa4350c6c32afd6a82d5a5391347c98cbf1870c75025a2116a271cbe5b5287629ca84b70e19aabf0ffd6eddaf18b4dbd9c150c1a21d0f6df03a",
        "l10n\/th.js": "41c3d06353f75094cc58c2df7fcf7c6ac14812dc1de5bddca18d37cc13248ab8c0ac41e2a9fc149d15495ab6fa832728d946b3df37459a2fd1ab41c5715ac090",
        "l10n\/th.json": "ecebc089f16d62bc59077ef8a3f69beb4a567f106d135f11bc47596a52e65f63beef7cfd6d4dc9210cbfcf674755f05e3b08d9b4053b7e1c246ce154a13c5343",
        "l10n\/th_TH.js": "23d84832754f11dda796608602485d7078d43b1a2c9adda524b9b92ec006b10eb145337f9a7ed94cf7ef1adf790c9cdfd43a580f1b4355e83537d8b29b8f2c40",
        "l10n\/th_TH.json": "5caf4aa878bb865f774cf44417a2302032a2423df49b100b6e9169444c9ca6769e1fa3c6af6c9692740281e4a1f6375838fa85260a9d9a7eaaeda5ec8f6de253",
        "l10n\/tr.js": "4b40904b52337af10212f0a714464170b9b58ba9c99c0ba832f338adbe9ec95ec1648d778053e4fb43ece2362fe644b5afaf2f1307473b767c3f8a018e5e13ff",
        "l10n\/tr.json": "e246a268103274ff00a3b3996f99362f2100ec104f39619a71018353441913e34d3bc85d9e87b8fa02a21279f6df7d0d49a6114c4d28d858fc59580df1ab7603",
        "l10n\/ug.js": "8f24ebf0075e5e257254c5b5f961f98fb2a8d131d9c80a899636a31f0dc4e69be2fc2cbca9f9b3c90d047aab8342d1deed0024d06b4b8d558aa3d30c4c64b7b6",
        "l10n\/ug.json": "aeeb300bd9d3880d318fee60d78c9c3a5a523172142748adf5833b4237fab8dea462f9223c9cd650eb5ab31d3d99f88db0786d0108f675b90bd93dbcd828943f",
        "l10n\/uk.js": "03db6c2a7238e0e9ebba404757c85020358b082cf988d0d521065b2c8e3d95b3030a03ad7cc5fc31344c1a27a2b58b7308f67c49b2bc88b3cdc28ebc5ebe100b",
        "l10n\/uk.json": "789cffb54143894ab57eb401131c3bf490ef369f72162cd21c760d8185cd8c07ab8fb96c20229a4c1470b5e88f7a685739d1748a96f2acf4093efe9827cd62a4",
        "l10n\/ur_PK.js": "790b7bb7095d911adba44989f4a95ce3c5a4bd4e4abaaadf0f21fe653636cbab0837748881715c78ba49187e7ea4409540bc2c92d7e201f9d748485451ea10fc",
        "l10n\/ur_PK.json": "0bc45b802357be3f47986230fc36aa62d80646737f25528ce7c879b19989e99c0c06e375b2acaa437162864322f8c8e495738cc8709a4e7f1824979d2f90446e",
        "l10n\/vi.js": "2483e0a6cc5efacc983a67bfbf535e43f222db436a6363fc149d934ee7d29d342cb6709bcd4fb0ca8ce2b5b35b6b3e9001466d0b0855bf09d1eb2a4b87e8b494",
        "l10n\/vi.json": "93981c81ac86cc57290c6fd896160c1df63539799cd7041e61ce67b13dae6675d21e800a2d6ca518bc54eadb6d05768f16e53c10a7fb457ab5bb11a46409db7e",
        "l10n\/zh_CN.js": "5640c7f24f9ffe49e1e3d02f403a8fea65ee68402a9cb4deab48ac21726e9ccf3bf7a079967ef6e8ad124e8f579bc33d60f1821e9862089a2900a3a322a50b11",
        "l10n\/zh_CN.json": "8d5cc1bc531f7b8aa4ca9707d9ec18d9bccf44fad49c6dc9c23644aaca5863a5a4b9991cacbd3dbf3ee0ae99e7b8970ebfeafc7823712fbdd1384a308691f5f8",
        "l10n\/zh_HK.js": "75f380c35c89aff917f121a5dae46af82eb4dc39d7a433497bb7183b53abadbddda141c5fa6fa45b5e647374532201a7d8e3e562709c86f65a2d339a86a564bb",
        "l10n\/zh_HK.json": "550e1775d6fe5e8712efdb732b074d6ae0c3e44555b5c793a9af8a467f0cefb9781fe9c88b34abf2d15969df44a69517c72a125e32c5c00def28b75ca7eb22b4",
        "l10n\/zh_TW.js": "b46cc44936c195b0bdfb9ea68728951853d79213415f45464033d4cceea6930328d9a57a905e482a99fa8ad3418d6cde7c550fe88487990822119a97a799bb17",
        "l10n\/zh_TW.json": "ba9a0639f961918abb341e0cf6f1f95ce0cd9849da897b7e8aec8f2cdc47ac9e71266e6b9f1e87d1a05edc481ec0fc944d3f48470b2df351a1ba01b99ea3ca7e",
        "lib\/AppInfo\/Application.php": "78391b5eab73088a5bd4bf4a44f1a6d6066c80aedfeed751f4db229e17227c89402f853d01d4a20a7f27ee30e79e5b94677f195deade2f88cb8138f922f1940a",
        "lib\/Command\/Applicable.php": "6cbed523b01b9409f719c9adcfb733e90d978c3876924c1b22921713aed0d05a406a98894f2be242da82a1ab81eb458ffcc2f75c5ec00460a1d39ffbd220f76e",
        "lib\/Command\/Backends.php": "ef1d998935e1864a47473828a39dba1d9fd68fe6494bb5921bf210271e2891523cef02d3b473f2a1b12c75dcf5f1919fd09627eaaf7e2a16b8fcd9e6ada2ce5c",
        "lib\/Command\/Config.php": "d2dcf00c99289b273de6a9eface1a544e3b574480c3a70dd0b58eb314ce161ae6e3996ff1168e87a3670c8e3779dea514c7c86885ef2bd9c1baeadcea9b6762f",
        "lib\/Command\/Create.php": "8698c64b660deee1ddd97396decf12d732a58c60b887511f0df6ed3cbcde34f0197f9bdae90a09de612a37bdd160874aed4ca7f306cc22231bfe94ac5b441adf",
        "lib\/Command\/Delete.php": "51a3b1dc2317eb3e89704076cf4f5abcf8ed17e4c6d05bdd7b1ef1c1db104e90c1d7fd658dae967b4992424c19b66d8d065f0f826c48b8aec961638db69230bb",
        "lib\/Command\/Export.php": "a80c97ec1ee9248f65c330a3ac7e20b69eecef9672aea6828a376c77859bb77100b3073b52066f16d5577597f98f5bbdc5b8a920c0b2cf7b6dfb5cc9d29dcd8d",
        "lib\/Command\/Import.php": "7d3b198396b80e1ae475ab30aeb8d36a4d59c962a3432f4ebc88bb172774053056ca51db54228bbc4e4d3303774e2aac86fe520a5cc6336f8b09f892964fe45c",
        "lib\/Command\/ListCommand.php": "dd104bad78f7c6038ed483cf46bad56ce567d15ec038f25db027e2df52ac5a83ef16d4e3ee21ad37b15bb0a6dffec72f62ace3ddb71e6af2dc8320695b9fcbeb",
        "lib\/Command\/Notify.php": "f9175b594bf56e7875ade90fb30c5a01f3f92847add9a220cb6996511d152944f203e2ce031a27114495b5579f6713a54e58c36b4fc5feb5f7343c569fb6da8f",
        "lib\/Command\/Option.php": "ea796db1cc47efc8227bf79893377b282d044333e4761f0dbdb703d2f3515647029388d60c2174e6c3690f8070593d1ea45ccadf25d6efc28ebe0526a9ffee2c",
        "lib\/Command\/Verify.php": "7b8e0c550f2ab907ee3df8e56d4e34e3b24cd5b03cde50cf69ba04c01343e0e82c27fae520e8a434325c2957065a9af387343fd35976d3f768a6a80e8fcdb6e5",
        "lib\/Config\/ConfigAdapter.php": "b6a8df8d0566a9836f962830c9fb925938f1e42e09d2a73d93c989cb666d5e58b2c5d91bb6fba6fbdd67b6cadf40e89c0e9f4472cba5ce21ce990b51b0610bac",
        "lib\/Config\/ExternalMountPoint.php": "17b1d940a25308079c622e2ce4d6695bd8fc711d238def38ad30beb04d255b6a1783f53cb75481a6ff52a628cc7d79d4a6a5c290d44c933e9c8827a4cde8c8eb",
        "lib\/Controller\/AjaxController.php": "153ca906e56d03f82f3cf34ed108e528ad133b671f61e624304f320e45cbcfa29c5173c2907f299057a2df64d787748d57ec95fab4ff9cf7d9de47272ce4a86c",
        "lib\/Controller\/GlobalStoragesController.php": "80b954737d8f8ead7440565ded3e0d6887c30077b0f3549f327d9a9da54ce5ddc183c6722ca38786390021e438ba7d62bc6b9b8a83f34f05be4b44303dd77bf6",
        "lib\/Controller\/StoragesController.php": "1d036e53fc067f397cea051d84acc231368151c3b4e7fc32420e2cb78e924170787d33d9da8f12e9ea0ae0d7fc5f18b304289ccbf1aec13ff2443fa0066bc976",
        "lib\/Controller\/UserGlobalStoragesController.php": "1da8b243a3a7db44aa48e1f02f693ee4c575dcff6406e16423be1b0d615c3208e6c54c25510778b70f3ca485b7410ac81eadba08ff4747daf98eb315d022ccb1",
        "lib\/Controller\/UserStoragesController.php": "3285bc92b5e45744acf14cf2372952c2e7fd439650137ed13cb69af71b51a947a915547bd37a08e1b01addf3635dfd515a9655cb52fbf62d71c82adc70a3bb12",
        "lib\/Lib\/Api.php": "b927be89c825505c7a1972968bd94c8d216a4a4859ee398b33538aeae43b05814c2ae91385abfe4a87a1cc45653fab9755012319e4a0ce50234941df8f803a6a",
        "lib\/Lib\/Auth\/AmazonS3\/AccessKey.php": "68facbce78e58b510009444fd18c6ad6e6fce41da1c3db88a6defb7509ec51830e1613436f077761d8c7c1c560d1f59a3900745849db1539cf801062a20c9278",
        "lib\/Lib\/Auth\/AuthMechanism.php": "f56a2b5ef779a2d62cf65af68bd32d75f1b655823e98a165f10cc36d5da67c4a9c33856ec7efce849006e41374452320ca81e2c0b309002477282ee7e332d0da",
        "lib\/Lib\/Auth\/Builtin.php": "4ce8852e4df14696a502a7ad058323c1cc03b6fd437cf62d55e591b5a5334591b0175893eb7407f9fc261309a5f4b2baa74d10d92d5ea0e98de060da39773f8c",
        "lib\/Lib\/Auth\/IUserProvided.php": "c4d7a92552d6b8d49e535097e89d046f82909ba07691788751f4a5142b1cc39a4329a074f8d4bda2fea96dbdd97868fed35511959370b423dd4b5021f0aca67f",
        "lib\/Lib\/Auth\/InvalidAuth.php": "999fdbaacf8f3351e46b0f82358b16d93725d1f88597784c376492918ebe9f6044057db4d714f9821ca46b349d74ae2ef917b21e7782e33bbdbb5b7000272126",
        "lib\/Lib\/Auth\/NullMechanism.php": "ef22559a3a4bf4f7565170f7d434ff3fba46339081b24a059e6b39cc9222d9314f921ee255119192ce04a0a7402558af624cd58c48f16c4fa03e9861cce6415f",
        "lib\/Lib\/Auth\/OAuth1\/OAuth1.php": "35fa448f67fbc7e12bee0960813347ba53d2dbab2eef8bfb739519602d6441dff1fa7b137aee0a5b0143a86e27e961938e1607b8cfcc03096f0511a4bd07c511",
        "lib\/Lib\/Auth\/OAuth2\/OAuth2.php": "f812cfb6fd836580e98bd0b56b558ba4d4ccc248809d3f528d65b8784859f357f18089614fb6fccc54b51d524c5979bc024b72d4eaf1127c37f3f6bc06cca038",
        "lib\/Lib\/Auth\/OpenStack\/OpenStack.php": "87254ffce24251bb8905faf7dd85660e077310fba16e54c84292e9b4c7ca6cc32fe8eb97ec0d1dc2c0df4676a7f993df2a45900f238fe92c214a8f6550cdcbfb",
        "lib\/Lib\/Auth\/OpenStack\/Rackspace.php": "d9dfa6205b75c2b56114a3e794de08d6653d7a2226a055fee53bdbac971e4cba93de0b901cb18f3d65825d0418275571c6d135891672958bb0e33c73cb9d70d1",
        "lib\/Lib\/Auth\/Password\/GlobalAuth.php": "23046b72b3c7defb5e9e705e8dbc80173da885462a4d3d575ad7407bd59cc29fe643d336f83c6d741d6576148fbd86e13f8bfc123afe54afb2d9e46feec79c65",
        "lib\/Lib\/Auth\/Password\/LoginCredentials.php": "38af09b50c446c7e3444102cbee50803b5ae4641284234360b2d7e419851644446bca86bfd8b32790bc8c008c4a77e0e907192820998d9adebb4f44e89376fae",
        "lib\/Lib\/Auth\/Password\/Password.php": "13b7ef40afacc33a59bbf484647fd79cfd8cd72f8114d2b3bc67ae2ad4eea1c189dd3e3e00ee97b193b8f3fdd127db1a28ee3066b0f03e80704fd6a2ef07e52e",
        "lib\/Lib\/Auth\/Password\/SessionCredentials.php": "0fd5782ba9fa1238e1150a6cf02f98eb2a91ead7f64dddb9e602d388e4bafb3eada1bee4203c85988641b9aae747b48e8892bdf1c6e4ff0bd0a1713abcf669e3",
        "lib\/Lib\/Auth\/Password\/UserProvided.php": "2bdfe8c27274559cc983542547f50b171e383dbf494df74edafbb85332ad90f2ddf8f89d1e33439b1a3599cc42dc807dd265ed5e8083e936e5f1c464e81dc783",
        "lib\/Lib\/Auth\/PublicKey\/RSA.php": "a9bcf971089f8e3daf1fc22b5b2dcaba51513529df21cdde1afb271c42ed0a4accbf98fe871d66e893e255beda96f598277b9255085083522b2e6fb41a002172",
        "lib\/Lib\/Backend\/AmazonS3.php": "99e836eef6a133ddd7cf1ce537dba78b8ca71d92ecd3b01e28f582cf5eb0d2fd24ac267fd6396af4c1ded33713815e549574e259c641540fe445570b7294974b",
        "lib\/Lib\/Backend\/Backend.php": "79e7735dcee44142dbc68e94481678d45a2475a7e6ff4b57b68f96490ec7ccf8e2de85486bfb0bcd46dc433ae80652ea6e6fabbe6fa87da919b558e1974b5b0d",
        "lib\/Lib\/Backend\/DAV.php": "21016d4d1298ff5cd5b367f7c46ab59e78b68f1a2ec67a9f5823771059b0af8a5d1f37fe43b3a43bc8823f787450565a794c1cde8829599e700705d9a60e5fa4",
        "lib\/Lib\/Backend\/FTP.php": "bb355baa77e8de19ada179ef0ff368a687769994cb326a3818d8e7af3bb87c214dd65d2a7aa28a02659bf9d361f1740610a6e91d6d8fcf52d92c8f45d18485e6",
        "lib\/Lib\/Backend\/InvalidBackend.php": "bb7c44c71061317eb69f2d78a0764b2edef42d4773a2258e4a87b26e596edef0ec02278b1bf108e22c377767ffe879dbaac561f2ae70a205785cf81052d31541",
        "lib\/Lib\/Backend\/LegacyBackend.php": "45e55744b492bf7018f32a461b620fe14862344089e30ae2dbeced7738e651ab4609ae0f9a875669b48d422dd3f94eee1aacde8a04b0c9d7dbef0135620a4308",
        "lib\/Lib\/Backend\/Local.php": "a2e06c71fac538b23e516fbee62cc7a59199107f237fb3f209d85abc42cd25c1861414082a4bccbd26c8e6a9bc256095b5783c5d125d5386c348c50195ec9a3f",
        "lib\/Lib\/Backend\/OwnCloud.php": "191ff58fe28c2349ea2d306fb6095d78e34664627c9c3e0314365c09d1bf22df6edc2c5904a483e796b11826751a159c1e81ec84f64470645d7673e549c564a5",
        "lib\/Lib\/Backend\/SFTP.php": "3c2db4bcf4e3abf322fc6715ce6d1516ec5ae75892174fea3d9ffd1cd0b6a8a88f4f30b29a2fb598c0edfa42e5b1d9810991c52e9a1d0f30aa4445f74d9593a8",
        "lib\/Lib\/Backend\/SFTP_Key.php": "e4c7bb5caa8df77e8be8793d426ea58243863c88a37c5074468a86f50d2befb9bb714517c1c6d65e9fd1eb644e17233f5872bb88478da701793ba0ce4d793909",
        "lib\/Lib\/Backend\/SMB.php": "2c20458346b05afee66840b5bf65a8c802516fcd424d99bed3e013b4f5dbae4c1177326198c5cbb0a693c22c3c6c2df9313e52b7110418ebe98cbb8a958d5a6d",
        "lib\/Lib\/Backend\/SMB_OC.php": "3611d6329953187ca353cf526150413b81440f3b912b7ab72332a576e14c9e80aa6dcbee30f0c2926a99546ee53d41b1c0082b1d23eaa5a9b18e7f3135626347",
        "lib\/Lib\/Backend\/Swift.php": "9a7cc02585a001976cc97350de3820d998ae4687dddfe40c8a9922f3924349e932481a432cb54d0b7fd20b6cbfc47b880e9506cbd2e75855df586d999c06314e",
        "lib\/Lib\/Config\/IAuthMechanismProvider.php": "bc568e5fb3c6222c86e47b40427985a6f08615e2168429ec80de6220b0e49fd4dba783c217053bf91e3ee6a1d5bd5e97d2a8aa83fcf964bfa8eec5064462d6d2",
        "lib\/Lib\/Config\/IBackendProvider.php": "2726a16d67457ca4075bd098aba403875b055404372aa58a295e0e6f16e3953b7b2bd2d23ec3789162b5ca74d2acabca2f4e03c76475702f99f37c0bcbbcc9b7",
        "lib\/Lib\/DefinitionParameter.php": "766925352e1d3d80adf0ede803245f13ee58f6051c3ea5992d67e691500cbf833edc5f68015c00ce7d2b8f6c07dfea44e93ca490939faaaa30cff6e0cfbe042b",
        "lib\/Lib\/DependencyTrait.php": "eae0ad559423acd9faa2a22d615fc72145d130cd05a616fd4940d7af618d8b846dc0fcbed8a2c3368f801d321f4940616b418d65329c247e111687bca89d1054",
        "lib\/Lib\/FrontendDefinitionTrait.php": "3b3913eb83f0b88f8521454a7d42c1b22421700e4dc0f6db97fc977a4e8bf21473156feed399666ccae2d417be1849292ebfca6fcbd334ac6ed0bc9a9c3bfb95",
        "lib\/Lib\/IdentifierTrait.php": "842f7f44ca97c530f108d51003aa434d0603a7db4590a56392ce67cc47dc2970c204736c810f646fa12c6b567786c3641fb7b4867462f5c0a9057f29f0024321",
        "lib\/Lib\/InsufficientDataForMeaningfulAnswerException.php": "8f1a2a11ca4a05016f562a522e0c542e2bbbc3de0bc1a0ca72f40a930f2fe129ca4cd6df089607f447e73927c924077b6001423bc35a4bec40546fe6bf346374",
        "lib\/Lib\/LegacyDependencyCheckPolyfill.php": "54e1c272408ce6f908dda3a54db5fbba0046179a4429efd3e307edb4d2703c4e91c1e1595d0efe43b983c0c0adbaad324671793ac42ca6aef3810fb9609f4bc5",
        "lib\/Lib\/MissingDependency.php": "9f2f6d13220bac0d01691c34fa1b6cc7f193a62b1ccecfed20879bb0fd83047d1c436d4544f4cb2bb15046ddb573594285258fc401e361143f64d9f8a0af1782",
        "lib\/Lib\/Notify\/SMBNotifyHandler.php": "d181fad866e9995f82a4b0701ab96bc7e09165a0203f95004baaaf029a5be0b325a77aaf4c5a179336982e35ea3a157187bd0b374eaafe0d1eb0d62bd63ba2f1",
        "lib\/Lib\/PersonalMount.php": "017f3f59c8a2012792f04b7739272b75fafd96f86d767dfaa6e1332c99c392dc99439c31d55eab5abfd90f97a5915d8658d4022a2ddc2cf0ae6705ecece46519",
        "lib\/Lib\/PriorityTrait.php": "c93356900c5c46595d47e764e914af117bd66d66e81c5d5fe4165d087a20826b92edb25bfac89a1b3d3079d57ee392f2cab00142ab9bb0ad2041fea34c883ff1",
        "lib\/Lib\/SessionStorageWrapper.php": "aaebf227f8aedb5475ffd360aae4545d5de8cd021b77ed47b11dcd0bf0ebc9132205b40289b3383e39811a41907316c4c2054791eb54d56083a56e66547cf36c",
        "lib\/Lib\/Storage\/AmazonS3.php": "9f301f82bc37a5c6ff716771a5d5aedd3516af84db9133548ed03ab31983193c4a4bfa3967ca945fb6faaaf1bbde66a7d327132c497505eb9afb3b2bfc751a56",
        "lib\/Lib\/Storage\/FTP.php": "daa48a2cacd78f3a0c39dddc09d2795e5c69dee5a8a144b6e4b8064c765799458aab40358cbe312dadce1246d22641f99b183db065ee2fc24e24af3672925bd1",
        "lib\/Lib\/Storage\/OwnCloud.php": "d9df0b4718b3fc9d04d59120ceb791f5ac0b13aa7c2293a46600da13ca8a2cf528f38f6a1d9e9c279ce2f616afda7ba81a5e6f183680b790bb48cd648578bca9",
        "lib\/Lib\/Storage\/SFTP.php": "eb5b1a029cc2108cf856b9f859296086712ff4cb7aaef3254eee176e37680a9197f7b9f41a8cfe37729c695897eb1b1e8851fd7ac7f719ace5cc5a75e4ba095b",
        "lib\/Lib\/Storage\/SMB.php": "6c69e715c150dbf9f82d7c2c32c6a31aaacf177575cc030d2b50c4ddc4eed0b5c46e66ae815b584d5ec1784d24b4ad861ccb0c3daea2b90c8584e993aa562d49",
        "lib\/Lib\/Storage\/StreamWrapper.php": "16cf1d611e1ec251571666ad7a8150019336b2271a7b4122945f58d0404adc740ea9971dada8ae847c5bee26b33e709e54ef604c5474033ce440247c3ee6cb4f",
        "lib\/Lib\/Storage\/Swift.php": "65985bcb657c06c97982e9480e5c55a9641c0d55a25658f4198d74bc20aa58f893c684b2daf516db9de6443b308f0251fae247298528bf5a61dbac11196bde8f",
        "lib\/Lib\/StorageConfig.php": "3d9cb667bd20409333f3501f8615dd0098f17190be88f335ccf43f90a229d2ec49f71dfc0e47fff414607adbb6a48964bc7e4fdab16e6385272254bd0714d4af",
        "lib\/Lib\/StorageModifierTrait.php": "c05ffda57afa2e464dc36a94c606275cedb3f7bc88562d61160848867ac3cd347486ebe540be4173c3e5155320cb0be0f0c76fa8ea60f6726174e81a66a887e4",
        "lib\/Lib\/VisibilityTrait.php": "23629de3fe6dcf85454e1ba4d3c03bf6843aa650f8969e7ec09ee8c45be0884fb1ac6de12395186529dc37f322f4b6bfb63e644bd5464d32f8f794e02dc7b58a",
        "lib\/Migration\/DummyUserSession.php": "fe1784387bd4d5c915b829377c1d1c44a874afb52d606118c09c321bd12c0090c52b6f687d40c8610ffb6e74822f871856f346362ff401d6e460f089a456d48e",
        "lib\/Migration\/StorageMigrator.php": "4170490955100e8bfc485482197b4b31488ce6ee4494a5bf07ad8668967fe5349f5237a8bf6bd0ee07036d49d1fc3d5c3a61b8a5185eb159d6df6e463cf66cb0",
        "lib\/NotFoundException.php": "56a2f05da95c1363912f05d6561550a76bb8381acd6d97c70e55b7c4cb4d50d5deb698d799f939dd9894248eeb27cddff4887194a955b9fcae4ca12b37321cbc",
        "lib\/Service\/BackendService.php": "f3a864488eab624b6d40eae9a9c707852be13c37b64fdb39cf9566927e2eefc56984d4f257a4bd26c3ee82e46b621bd23b413477290e45bf9c1188945f0c8013",
        "lib\/Service\/DBConfigService.php": "cf2c4452b09d1bd81ce581be448df4f5afb92696c7bc174d52d27e195b60015109d6204bdcfb492b98b85601b9b6cce784fb8ecaff547e7eaf3094149b5d5899",
        "lib\/Service\/GlobalStoragesService.php": "7276b997cbb9e846c94d533a34fb67dd153102aa8fccc927a0493bcbb66906469186d5269de4630ed36da24a5e45ffc1d493c01881ad27ec53c11f51402f8a91",
        "lib\/Service\/ImportLegacyStoragesService.php": "5f37a2b405acead9f9c6a41c2f6e7b6ead7a2a106f81e992a77bce8a57606f069c4f6f170a546b13d9d58c3705e73ddaf27aa69d5380019ed0b9010386933713",
        "lib\/Service\/LegacyStoragesService.php": "1ee1512237759b00e0f42d555f722f4b040c0df4a02d7158a0029adfd2f2075112d7c747d623de5472f9ee0ceee24a567d2596952102308f75e3748038800f93",
        "lib\/Service\/StoragesService.php": "a7b89e156b559ab3583a73b42a54c64ccbbad7e2b3927c93a40dfc3fef15bbad3f6ab57690658d7c9372c63d33ce714d8abd0ffaa02cea44d6ea02dfa81ae784",
        "lib\/Service\/UserGlobalStoragesService.php": "647a373e8d314000c6ef81aac24bc4973eda326f9b2727c30ff5371396ac45b2d987c54d6ff48ff55e5bf09c2750a2e91e5e5758c066041365c1d28c6fb9dfcf",
        "lib\/Service\/UserLegacyStoragesService.php": "62a705663ae6fdfec9e9fe22f970a1c765cc02474a03bb55606f331863ad729765d5122cc7d2ce9155165958c61f9aef5935499cec21e85582c3661b2c9259e5",
        "lib\/Service\/UserStoragesService.php": "5e58cfcaeb02a6b387e18bc96ee99a9c44983e584c58e2a8e5aad491aecbcbbb4f3c02e79ade55d06d28251de60439577f205b298b485058e69f5fadf5b1c03c",
        "lib\/Service\/UserTrait.php": "23364ccecfdd35a129a951c52abb2ed97e08374725edc72e54756aa8702cd77ea1e96122f550a77bdd105fc5b91fa2a670649a10087c242d4382a0cfa333a92f",
        "lib\/Settings\/Admin.php": "01aa2f484b4aa6ee8abc926117a9f2e133d847e90960f60cb225c4b37267393e080fa67813d8d5031cdac1674d246de6db879ebfa8757fc7338eeb0550f683a7",
        "lib\/Settings\/Personal.php": "09f37a553cdf962b068e34edacf3de84f0df01b17ccea98773b32c1aa6bade550b7839da793d67727c7e13900411e2dbd6cac4aa94ca083f043815eb271e1b42",
        "lib\/Settings\/PersonalSection.php": "b44e63a8631aa1d3052fab4449403d224fea8362503c907dbc9d67e769bffe78e7287ccaa078cfd99147f3f01863b6511b78bf38014b13fcbc7f453c2db3247f",
        "lib\/Settings\/Section.php": "558e97dc8f154005ec4cbd4d43e4381c9fecbb395dc4830c0cc18ed044c93b432859c8c49d015b931cc8b4e478754ef1e9a036351738ffe5419e9913c07bd41f",
        "lib\/config.php": "a63804987b453eb2dee513119cf9c882e6dbf543e42547412688501e940cad7ec3220e9325cd3df802c5ef36948a320515795e69fe75c30ae2fd3e2ecd125a91",
        "list.php": "1c39beccf05e5fc26e52a60aadd0a9b15b4c85c99622bceddba0e50206e69cdf7828fcf67fde959a1b5cffc322826f2a054093b871f2a8de241b1a2739221ac8",
        "templates\/list.php": "f25a4800a71c2e16012b309777edae92b63cda33f3c7d7a30a1e735fc2163f5b2399a3685cc95dd5149bac14153a65a87d8ce5acaa200a69458bf68764fada78",
        "templates\/settings.php": "eb46703ecd5e3e27468006fe27c1caf922cf541403eef4c166c99905fbde3f577ce2d27d9a5d4b73f3b7088200f514108e669cf6d7213c89387450c98992d3e5"
    },
    "signature": "SQNfgKZRPdr5yu5sxK8cj\/kQoU+GIq5+rKAaXRwNsKu6aSGO07Zd6uG7iKT74EzT7E5aupmFe0PtEXn8FyyFNqxYzzbLJqSzX7ESbCPAZ9BkxvVmkjuuiTSzr5cQ9WOkv7aID0CYMtrZbDctOPbqepQeyDA5PxTQAjWEsM\/xiu1CJvujImHq13Q5wSh+OzLZ95SscB6visabIcG\/TPEC2XLIWLw6O8vuTIz4N5DSb6bMsB6GvS5JXT9h7z0f55cw5ZarBLfOLbojnG9wJ8QRGA\/0eRMIx2aOlKTfgWNRUOt9iz0L9+XkrGMmjdCy8LJ3tN2ZJj69WFINXuRnD6oiEg==",
    "certificate": "-----BEGIN CERTIFICATE-----\r\nMIIEojCCA4qgAwIBAgICEAAwDQYJKoZIhvcNAQELBQAwezELMAkGA1UEBhMCREUx\r\nGzAZBgNVBAgMEkJhZGVuLVd1ZXJ0dGVtYmVyZzEXMBUGA1UECgwOTmV4dGNsb3Vk\r\nIEdtYkgxNjA0BgNVBAMMLU5leHRjbG91ZCBDb2RlIFNpZ25pbmcgSW50ZXJtZWRp\r\nYXRlIEF1dGhvcml0eTAeFw0xNjA2MTIyMTA1MDZaFw00MTA2MDYyMTA1MDZaMGYx\r\nCzAJBgNVBAYTAkRFMRswGQYDVQQIDBJCYWRlbi1XdWVydHRlbWJlcmcxEjAQBgNV\r\nBAcMCVN0dXR0Z2FydDEXMBUGA1UECgwOTmV4dGNsb3VkIEdtYkgxDTALBgNVBAMM\r\nBGNvcmUwggEiMA0GCSqGSIb3DQEBAQUAA4IBDwAwggEKAoIBAQDUxcrn2DC892IX\r\n8+dJjZVh9YeHF65n2ha886oeAizOuHBdWBfzqt+GoUYTOjqZF93HZMcwy0P+xyCf\r\nQqak5Ke9dybN06RXUuGP45k9UYBp03qzlUzCDalrkj+Jd30LqcSC1sjRTsfuhc+u\r\nvH1IBuBnf7SMUJUcoEffbmmpAPlEcLHxlUGlGnz0q1e8UFzjbEFj3JucMO4ys35F\r\nqZS4dhvCngQhRW3DaMlQLXEUL9k3kFV+BzlkPzVZEtSmk4HJujFCnZj1vMcjQBg\/\r\nBqq1HCmUB6tulnGcxUzt\/Z\/oSIgnuGyENeke077W3EyryINL7EIyD4Xp7sxLizTM\r\nFCFCjjH1AgMBAAGjggFDMIIBPzAJBgNVHRMEAjAAMBEGCWCGSAGG+EIBAQQEAwIG\r\nQDAzBglghkgBhvhCAQ0EJhYkT3BlblNTTCBHZW5lcmF0ZWQgU2VydmVyIENlcnRp\r\nZmljYXRlMB0GA1UdDgQWBBQwc1H9AL8pRlW2e5SLCfPPqtqc0DCBpQYDVR0jBIGd\r\nMIGagBRt6m6qqTcsPIktFz79Ru7DnnjtdKF+pHwwejELMAkGA1UEBhMCREUxGzAZ\r\nBgNVBAgMEkJhZGVuLVd1ZXJ0dGVtYmVyZzESMBAGA1UEBwwJU3R1dHRnYXJ0MRcw\r\nFQYDVQQKDA5OZXh0Y2xvdWQgR21iSDEhMB8GA1UEAwwYTmV4dGNsb3VkIFJvb3Qg\r\nQXV0aG9yaXR5ggIQADAOBgNVHQ8BAf8EBAMCBaAwEwYDVR0lBAwwCgYIKwYBBQUH\r\nAwEwDQYJKoZIhvcNAQELBQADggEBADZ6+HV\/+0NEH3nahTBFxO6nKyR\/VWigACH0\r\nnaV0ecTcoQwDjKDNNFr+4S1WlHdwITlnNabC7v9rZ\/6QvbkrOTuO9fOR6azp1EwW\r\n2pixWqj0Sb9\/dSIVRpSq+jpBE6JAiX44dSR7zoBxRB8DgVO2Afy0s80xEpr5JAzb\r\nNYuPS7M5UHdAv2dr16fDcDIvn+vk92KpNh1NTeZFjBbRVQ9DXrgkRGW34TK8uSLI\r\nYG6jnfJ6eJgTaO431ywWPXNg1mUMaT\/+QBOgB299QVCKQU+lcZWptQt+RdsJUm46\r\nNY\/nARy4Oi4uOe88SuWITj9KhrFmEvrUlgM8FvoXA1ldrR7KiEg=\r\n-----END CERTIFICATE-----"
}