{
    "hashes": {
        "ajax\/delete.php": "921c456a1969aafd3c58a604c1a79ffbf9fac6667f3abfba52da11069bed10c6138237d5795f237441814719bfcafb0de49fdc047709c34cc44bda9c7abed704",
        "ajax\/isEmpty.php": "ae58599bbd60df72706c335303057a00aec545931114dcf130c47a82f44fb0631d2c07a0db7960bd1a62931cb6a9cb338045712339bdcff1651f8bec4dc9f66c",
        "ajax\/list.php": "7515f0715e74179c0838af2aef7ad8512eca4dfc4c109892b5eff1cf60374e8688151c1b1aefaed71bfb1540c48517e3b98ed88236001df7b294470645058d1a",
        "ajax\/undelete.php": "c8cb82a1fc96672ffdc4a87e7eb09c3b150c06e8e85d5ecc9394115845b29159765e92efb3788f7a6b1f2ddef14d5c757eb5528468bf5a2775aa3a5c677985c1",
        "appinfo\/app.php": "6ebe3a9091be99fcf686d4e31b89821e57580a48d38f881ea330b469432ca13412656036528f8010b8c0ecc648d78649050923558ec9ca020047b0e1f265584e",
        "appinfo\/database.xml": "cc760e2f5e74a1fb63cac8b011810703fce9598a59064bbae50fbaf15edf5545d753152947b9c22ca67a6e3bd0ad02db54312825176241dde6fa1c2bae63c003",
        "appinfo\/info.xml": "5a928d981104171a77e6430677bcb0ff3b226871a85d49e765ac7e72a58c5fd1fc8a61ef73537c216c19027b5cb583bfad716ae531bcc8a6d8cc18311267f316",
        "appinfo\/routes.php": "08afce1d117b53e86b319cd4fefb91fd1fa5a440da7a80908a9d398f5b95a2c229d0cc26cd693544756d3ec1926a51a81e28723ddbf66870efc3ee6cb188b43a",
        "composer\/autoload.php": "5e59fe28667a26582dbc0e312816a53b867b4871d7d1ed83ed181b6282cab56fbbe0cbae64b0731f14949a6c5bd5a4f8f3670cb28506b7f3cb1e559d36827c0d",
        "composer\/composer.json": "66b0e5b361e56a850f438c0d0b748dd57afe1c1117a4a349dd5fe4d83d99c908c10d4fc2eec0e982a4785fdda34a5a03bf2c61f736629ab69233c60cca3de708",
        "composer\/composer\/ClassLoader.php": "2497ca34659364f9d98159a34fff209b69cad911f06efbf1a4c2c7bfa007286060cb5d7d0b8188e9e219a6116d9a890b50e305f6277fdc055590fb42482896d9",
        "composer\/composer\/LICENSE": "f3bb64009f41a425df5a9bbab53490f0eb9b74fa8d6aaa2f57efb928edc4ffff330260666edeaa04a91fed708c3663371cf01b284f3a08d6698aaef7a23f355a",
        "composer\/composer\/autoload_classmap.php": "f1dbc01fbc06d2415518976315d5f2136deba2fe5ba310bb3026f8f7ac1869169da19cbe88e6bf4ac1d1102f5b675b7c71ba1bcf1a1c51957bc486005645b589",
        "composer\/composer\/autoload_namespaces.php": "dd8ee31d2faa9014fe567e1f954b5e7f450cf06feacbb96d4df663c59b1a36a0b7d26ad41b46354bd14f282fa7899298137208d1851099cd3ada285650efd90f",
        "composer\/composer\/autoload_psr4.php": "8018dd82d9cc9d4f282c569074fecf9b1c90bec325e7b291ae714b6d05e3c2246fbd2ebc4b027d7044978e2eb5e66b06c13d7c8ff079414ebbfe90866b49e71a",
        "composer\/composer\/autoload_real.php": "5b3303eed8c73c7564d8b818254fe46db5bf4ad12e5c4b03aaba914a1a651d700200b54150a768ffec526c1cdcb17b5e4bfb2fc676d196eab53dbc484babd0bd",
        "composer\/composer\/autoload_static.php": "a7b0e7c9b15697ce2358647387f27c0357ba032f9072dd05a729eee721cdc49233d38ca468f2c0306a5e226b8ac0c79c0f368e1e7a719b95189311187604d222",
        "css\/trash.scss": "6147267d7a563e3962c6b78e79dd164f9724e26cb677b40138c8a52452055f5404eda496aea649cb80c4299d57be18e7e6b8eeb121d778fe388ec99983bbf07a",
        "img\/app.svg": "2cd521d4e4efd51172602501fb316371141e157364ecf36f73b1ccb8475ef8a72d46194f75116d0c9ea3fdc57f3dbd8841ac9806549c4cbb6c53cddd8a777d9d",
        "js\/app.js": "d62c49e1251a69a3922192b9ca468ef7d73b638cd2ae3f8dfcb30c77dc04b5e6c933d2dd89e97f81c3b9a3adefca8f3f9d757b3750f6ee513c9ace69eb7286a6",
        "js\/filelist.js": "6433deb8832cfcbb0c8203f3c11902130a536f1af5a033862b7a0120239c685412a6618587343ef63f5c31cc73360b0de43f5341b52cf43851ee64e613bb9a0c",
        "l10n\/.gitkeep": "cf83e1357eefb8bdf1542850d66d8007d620e4050b5715dc83f4a921d36ce9ce47d0d13c5d85f2b0ff8318d2877eec2f63b931bd47417a81a538327af927da3e",
        "l10n\/af.js": "705d07908b01c1506613fefaf0b36b5435f7670d407d71ddcb564cb8cf9fefc44457827ec0cfb74c2c23e9e9cd25e426139dcef7ac6fb37fa5673450e6d0c82c",
        "l10n\/af.json": "c885244f2b1512b1b4f138870a19dcd2795714c701ae0e9965f98f5e5d64206c26d64a809764d444644166a0f4ba6a90c9f47d8502990a2f3a51125a46163e45",
        "l10n\/af_ZA.js": "c4a12f2159815c3b0d383a4cf74509e9bf0dfc1dce1621729198710489095a15f3cff025977a976b7f03de662a8a4875f8e9c1c5ed94d9e50d30d2ac56214fd7",
        "l10n\/af_ZA.json": "792b7c171eb41665f21b08e9061b1b581fea601bf604afbb36848e52d331bbb5ad205274d8f8fc2b4aabfcbe3ab716eea0bbb0b65d6921ab699a9689cafb6528",
        "l10n\/ar.js": "eb6ba27e7d0840c454f233ae14024c13ba7366346f1e10ccb5b2aa8a49484d429a7a0d9875b5e72f9976c8fc70f478ac3f4bd1bf2c1a72210e94b2e54bcce3b4",
        "l10n\/ar.json": "76e442f81b90da7119bafdf79cb0ab115dc2559083e257fbd68cf7eaf34860cab7419824adcac75a82ffe792f14b16dd6e9621d5a80658f13e4f0b69a8af00bd",
        "l10n\/ast.js": "683eb0458ccb4ebe262b28fc29b22f7766ddc452b79031dc121b71903bb5dc0164b322badde91c54f8ae19210c39ce2babc07dcdf293ef3509393f243ee5b1ef",
        "l10n\/ast.json": "c1b8c168bbc850d6036e16a6b1708e95b356e725d2f0e4518cdc08c3139213b3e11aa44e324f67b2dcd0ce8cbe27d73c26e525042238fafc8f0ee12662834eb5",
        "l10n\/az.js": "49c0aa4d3ed67d89b8a094d1cfbd3c6e835e42ac7722568951c21036ef32aabc156596e328891330b6fa925fd9d556f7fc5ad4d896c11d09bbef0ea8664946b9",
        "l10n\/az.json": "1b9ae1f876d8aa8e63c18f7f0cee2a2f754bbe5cdd6a1cc8a01ac5435b184f148c86da79427003f138274acc47d96db9ceca68c73bf891c2beb3a12dbc32dd30",
        "l10n\/be.js": "517f25feb8837c658b1636aa8d4c3aed76d1a406b52bcbd821dd3ea6658d343f73e830c7d2deca588fd7cbf25bf5862cf0ba8d017c3f00aae07bb5a9794eb591",
        "l10n\/be.json": "66259ccb62b1d1a29add35fcd06fec8ebab8df3fcbd0e20f7db0b8757795f3c6c180131a340f0f8851a71dad0a5ca5582cc853c5195f42bdac1d940f6fa2295d",
        "l10n\/bg.js": "a396c22a6b14c49dce0a116d548ffda04e226c564deaabdcae42001f3ee303b6c4245952c3e8f071105ae0edddf42fc73d7c4a7fb854732b34417fff984b1cf7",
        "l10n\/bg.json": "8953661b4b560b28022eea91e56e64a8faa3d5b8209d44f5e8b5a3aece3e0e0cd7bf2e0388b4fc0963d81214ec1f1091c5984518011ccd9ba5479eeaee230fa5",
        "l10n\/bg_BG.js": "d6ffb2d65bc27999cba23e3dafacb266e99e2020df0c547ae53c2467118f2f02d8767364ee272354022a355b3e57eea46b418b006e0987093eae6130c5676bb7",
        "l10n\/bg_BG.json": "e7001b480bd0f88837147594d9bce4847c7a882b29ab11d4fde1a3f66558cb76c7966ea40628df76255c30e67e08808023ddd4e59856e58ab294e8b8edbcc92d",
        "l10n\/bn_BD.js": "d49a48ee1a3aa3a9b967ec43ce927bd415c5c559984fb5b2c7ffd4da5bd2c58bd522d42c0fe9bc31276b1ba1f8d8506a53c6d963ed64e089400af7b69f3a2c2a",
        "l10n\/bn_BD.json": "f262b63c8a770be26fe7cc9c28d1cacdcaa7b05f3d34d3697ff9d9effd9cb488f5fbc08fcf2cd7aad1af0df1514f639ba0c61e487add4ab1e7cdb087d4843f10",
        "l10n\/bn_IN.js": "79ffaa2a60c00d2e902f2f34830e1c9d90f2a7ea03a1331515e7edb0f59a094b20e59026041b436bd21d8b3998cddf80e4cbdef1c3fa4286786fc6c1f033b23c",
        "l10n\/bn_IN.json": "bea2091b5e9897f37b6fd7433995d675d3ed0a06f584ce25db14afd098ea77e1d29728f4d257bd640a82f9cd3ddd3c51a2119c5f2d334d248bd1eceef2f330d3",
        "l10n\/bs.js": "aacc759a682c3207c3a9beb4c6073130db0953967f743080855843a958ed14d5c5c8a0b295244b9017383c26017aa8f583882fc9d3e5d9c75497a098dc6200dd",
        "l10n\/bs.json": "87ffeacc42d666cd5c2465df8cc01800566a699eb1c50dfc3572beea85c7bcea53943206719c386c9085634a361f34b5db8a94a6820bd891c50afebabe0497a3",
        "l10n\/ca.js": "9373e2e727c3ca715cf8916b3073c9040dfcbc85db48b37cc8adda9fd5704fc34326462550bf78d19e0f55f3513b1f65590fbd3a9f533e6969534197d2149c4d",
        "l10n\/ca.json": "fa2dc09e8ea77aa5b0a20062ef63e8adcfa0c8b6a64db752001eb5e72cd691e80b8463b265eee5a56f115e8e3babc968d9505d66c9ae80e6a0fad2dc0c1e9ef9",
        "l10n\/cs.js": "536548ddd770a1ef93931c07a8470e9df017fb3187fe999aee62c83566abf2099333f0dabb788b05374d60b60c28482a5a8aec45741ff45d99069dfb4166746f",
        "l10n\/cs.json": "612a70f1341f06cf7fb411b61b5598ece13f8aba20781124a04a16a52d5d7965f3a6f341398701e293686334f12701f5b37d21120bfe1c31f97b213a5f6a161d",
        "l10n\/cs_CZ.js": "5f27073301f6b481ada257f7676b758e466172fea55cc827c2273b9f66f4f0816ca91d8bfac5edebe80a414db0edc749fdd45276e53a010ceda09ee6a8d72dc2",
        "l10n\/cs_CZ.json": "b36f0bca545cbd4ccbeaf5886d73481c12c544cfcdeff50838f61e3f9dff2627a9779bf270d53f3dee833e6871dc7a4ab06238f1089d9838cb58da9a3b324bce",
        "l10n\/cy_GB.js": "25958ce3579bbdfc8a7dad5ecdaa1cf20b192481b881e6efd19c16e30ad2d06d2dc9d84f8ffe76cec9cd4e86776fc2b8e252d8d60993cb7a1c54ae162fc53a86",
        "l10n\/cy_GB.json": "7a1a7b96a0668189921cde31c87392d07d6bc4cdc24d46368d6021e3160a2f64cf6f1994ccfaf220474d35a8bffe3028e8aa71de0ee3f111d79fcb08c38cbc56",
        "l10n\/da.js": "85ab48f8762c424daa19cb4751592cb189b3b9132f61364bdf4b9a5e85b1730dbf37f777aae1a958e9fb84441e5d5dba22ea07d36d6c2daae5d5bf08203cd308",
        "l10n\/da.json": "800d09561a3aaad5a63e19f1cec464267fff9b86e70f4d83ae4bfbef218bb9059aa0563155ffdd84fde50619ffa3ba22bcfd7cb73c5213f31ea1c5923181d1aa",
        "l10n\/de.js": "630c1adf7ad4be821a2c04f164aeeb01f3c50641b4e56522cfc5a29bd81306ae2435b6a203dec1b2772c579c1da5c7f4e4474f6794b91e1c0ce37d4a15696348",
        "l10n\/de.json": "1eb7654c0f9eaf9c916418b7c3f2b108a28ec38ddf8df05f28c5e95789873f3adf4bfb35675013a52686f06114f884eb8d1d919c48a1aa6360ffe92579afeb12",
        "l10n\/de_AT.js": "4e9ab76598de8115dc19b60b3b2be9e03164d18786b451cf23eb1a6eb88cd450b85246eb8c6ef073ca10dfebe61809bf4dca217f4cc9faa4c8b43f229573dcec",
        "l10n\/de_AT.json": "b8e2fd3c6b4ff0f7aaf205638d8f575ab496ad7c7850be3e0b63a27c39327e2268d58b0cb51410957014c3556cb5b671d36e36b454498bd58015527811b4e2d8",
        "l10n\/de_DE.js": "3d0140d52305e0e27c19d6af7ab18c6c608c3e6a293a801bdbf21e6ab0e095c9aa75d0a7eed29b59c7bd2fed6b3fe6185ab9e96005dba2991a4b45d5a14d1a24",
        "l10n\/de_DE.json": "ca56afb4ab7d8a7a03a19bcf287a67b82697845c0f618a4716c1f271a858b2a8dd821087472f7a20dc3e731de3cdeaf528e1ff840ebc37305953b8d05d029f19",
        "l10n\/el.js": "ab215e4fb9e9f29b02f729911e4821a145596ec2fc9f1287593c99ce5718aed5a48480e511e41e4f2fb4a55fc19d67869284280a42d7d0dc5785e83bf1ecaa8f",
        "l10n\/el.json": "9173e119d36e22b273d3ef871cc4ed292a00e59be8d3280b7c3ff7095a95f602e5eacb7c4a84e2e0791062e0a829442e2db5bac7e41692a213e9cd209356cb21",
        "l10n\/en_GB.js": "6be603dc2819248c8c1ec258940b995c4db28e7d441ddd7bd2014807bc9678637b5b0475d8289159e69995daebd7eece858c3784e130b3716d647372c32aeb89",
        "l10n\/en_GB.json": "e832d93fd08721d8937bc89deb1ca5a86229a78471d6e2b13dfd1329163b34ace944ca1792b9ed6dd8f180334733f6d7e3559e4b2cb1c2d982515a57a8a79fa1",
        "l10n\/eo.js": "081dd30f8a62e30c9794fe79f6931a4c8026539f40ced7de7bc74a21b6e069ddce9c9f65d1ccf4133c4a7b61b8cb527d3bfbfd627a8e7ef7af64e16d633e8daf",
        "l10n\/eo.json": "0afc69a3a84970a097901ede8b9170c27312d19b45d9de9e513475afe15f7940700c645d223bfe01226c79e51f278106328a79bf6cb3789200b6a8b55cb901b9",
        "l10n\/es.js": "cceea0575b7d09a7f8e5b5b5eac7efb711fd95674e3efc0fce34b757e7cdbc56bebc2c0cea4300022dd7f230437b34b4f750ea5293e39b8b7a465c18623c994a",
        "l10n\/es.json": "35a32c9b2dbd9c4c0a8fc39f9a768b014383bcb6286717e91ef3cfaffd9fcea3a01f28aa0547760fd802c2aab1db36eed65bcfad14aab44b8a14e840b0b7dd91",
        "l10n\/es_419.js": "9883714b3fa0a0f1f6568a63a96b747f1b7c142500b62f2dcf85f1d8aa5460460ecc04e7e42849b6af46b25d2c224bcfbaec000b3cb56ebe94f94c5042b0e882",
        "l10n\/es_419.json": "3d0fa64517d1f09bd6a159fd3beb059bf49d4abc5ba2b89978d97bb673ac33e01c71ef6a2458a6eb05adf8c006c38eaaa537b2eb6f78a5dacc6aa82f2377f62f",
        "l10n\/es_AR.js": "e9940bf918c7411626e62b69da7c3982bad61b6f502d9305e7eeeebf3362e0ec917165b418a3be0c40c4aafeb6ee492cb8c1f6920108b3fac383d4e70776714c",
        "l10n\/es_AR.json": "79149e3e9e54715a574ecfe3696f2940db58e8a98f663f778ced367638d96c232ff80c23ce37c4b1245455efc6ec71d7930294c5e8ed4314aeb643542334fc26",
        "l10n\/es_CL.js": "9883714b3fa0a0f1f6568a63a96b747f1b7c142500b62f2dcf85f1d8aa5460460ecc04e7e42849b6af46b25d2c224bcfbaec000b3cb56ebe94f94c5042b0e882",
        "l10n\/es_CL.json": "3d0fa64517d1f09bd6a159fd3beb059bf49d4abc5ba2b89978d97bb673ac33e01c71ef6a2458a6eb05adf8c006c38eaaa537b2eb6f78a5dacc6aa82f2377f62f",
        "l10n\/es_CO.js": "9883714b3fa0a0f1f6568a63a96b747f1b7c142500b62f2dcf85f1d8aa5460460ecc04e7e42849b6af46b25d2c224bcfbaec000b3cb56ebe94f94c5042b0e882",
        "l10n\/es_CO.json": "3d0fa64517d1f09bd6a159fd3beb059bf49d4abc5ba2b89978d97bb673ac33e01c71ef6a2458a6eb05adf8c006c38eaaa537b2eb6f78a5dacc6aa82f2377f62f",
        "l10n\/es_CR.js": "9883714b3fa0a0f1f6568a63a96b747f1b7c142500b62f2dcf85f1d8aa5460460ecc04e7e42849b6af46b25d2c224bcfbaec000b3cb56ebe94f94c5042b0e882",
        "l10n\/es_CR.json": "3d0fa64517d1f09bd6a159fd3beb059bf49d4abc5ba2b89978d97bb673ac33e01c71ef6a2458a6eb05adf8c006c38eaaa537b2eb6f78a5dacc6aa82f2377f62f",
        "l10n\/es_DO.js": "9883714b3fa0a0f1f6568a63a96b747f1b7c142500b62f2dcf85f1d8aa5460460ecc04e7e42849b6af46b25d2c224bcfbaec000b3cb56ebe94f94c5042b0e882",
        "l10n\/es_DO.json": "3d0fa64517d1f09bd6a159fd3beb059bf49d4abc5ba2b89978d97bb673ac33e01c71ef6a2458a6eb05adf8c006c38eaaa537b2eb6f78a5dacc6aa82f2377f62f",
        "l10n\/es_EC.js": "9883714b3fa0a0f1f6568a63a96b747f1b7c142500b62f2dcf85f1d8aa5460460ecc04e7e42849b6af46b25d2c224bcfbaec000b3cb56ebe94f94c5042b0e882",
        "l10n\/es_EC.json": "3d0fa64517d1f09bd6a159fd3beb059bf49d4abc5ba2b89978d97bb673ac33e01c71ef6a2458a6eb05adf8c006c38eaaa537b2eb6f78a5dacc6aa82f2377f62f",
        "l10n\/es_GT.js": "9883714b3fa0a0f1f6568a63a96b747f1b7c142500b62f2dcf85f1d8aa5460460ecc04e7e42849b6af46b25d2c224bcfbaec000b3cb56ebe94f94c5042b0e882",
        "l10n\/es_GT.json": "3d0fa64517d1f09bd6a159fd3beb059bf49d4abc5ba2b89978d97bb673ac33e01c71ef6a2458a6eb05adf8c006c38eaaa537b2eb6f78a5dacc6aa82f2377f62f",
        "l10n\/es_HN.js": "9883714b3fa0a0f1f6568a63a96b747f1b7c142500b62f2dcf85f1d8aa5460460ecc04e7e42849b6af46b25d2c224bcfbaec000b3cb56ebe94f94c5042b0e882",
        "l10n\/es_HN.json": "3d0fa64517d1f09bd6a159fd3beb059bf49d4abc5ba2b89978d97bb673ac33e01c71ef6a2458a6eb05adf8c006c38eaaa537b2eb6f78a5dacc6aa82f2377f62f",
        "l10n\/es_MX.js": "f845e38c51cea3aa9c2376183eab37835909bc5d30898b0450ce31009d0042f2152b72198a2c0d6dc31f29bc13e53bb692ddeaf49f790f3f2b5b660c06d3e5db",
        "l10n\/es_MX.json": "1600e5f1ccbc78d77242bd0ae99500807bd3c4825719c31ce29e5ff8af4e58f30c0eed2902f81b5944f33ecb32612601adae6b3971db511e26ffbdf9bd579c98",
        "l10n\/es_NI.js": "9883714b3fa0a0f1f6568a63a96b747f1b7c142500b62f2dcf85f1d8aa5460460ecc04e7e42849b6af46b25d2c224bcfbaec000b3cb56ebe94f94c5042b0e882",
        "l10n\/es_NI.json": "3d0fa64517d1f09bd6a159fd3beb059bf49d4abc5ba2b89978d97bb673ac33e01c71ef6a2458a6eb05adf8c006c38eaaa537b2eb6f78a5dacc6aa82f2377f62f",
        "l10n\/es_PA.js": "9883714b3fa0a0f1f6568a63a96b747f1b7c142500b62f2dcf85f1d8aa5460460ecc04e7e42849b6af46b25d2c224bcfbaec000b3cb56ebe94f94c5042b0e882",
        "l10n\/es_PA.json": "3d0fa64517d1f09bd6a159fd3beb059bf49d4abc5ba2b89978d97bb673ac33e01c71ef6a2458a6eb05adf8c006c38eaaa537b2eb6f78a5dacc6aa82f2377f62f",
        "l10n\/es_PE.js": "9883714b3fa0a0f1f6568a63a96b747f1b7c142500b62f2dcf85f1d8aa5460460ecc04e7e42849b6af46b25d2c224bcfbaec000b3cb56ebe94f94c5042b0e882",
        "l10n\/es_PE.json": "3d0fa64517d1f09bd6a159fd3beb059bf49d4abc5ba2b89978d97bb673ac33e01c71ef6a2458a6eb05adf8c006c38eaaa537b2eb6f78a5dacc6aa82f2377f62f",
        "l10n\/es_PR.js": "9883714b3fa0a0f1f6568a63a96b747f1b7c142500b62f2dcf85f1d8aa5460460ecc04e7e42849b6af46b25d2c224bcfbaec000b3cb56ebe94f94c5042b0e882",
        "l10n\/es_PR.json": "3d0fa64517d1f09bd6a159fd3beb059bf49d4abc5ba2b89978d97bb673ac33e01c71ef6a2458a6eb05adf8c006c38eaaa537b2eb6f78a5dacc6aa82f2377f62f",
        "l10n\/es_PY.js": "9883714b3fa0a0f1f6568a63a96b747f1b7c142500b62f2dcf85f1d8aa5460460ecc04e7e42849b6af46b25d2c224bcfbaec000b3cb56ebe94f94c5042b0e882",
        "l10n\/es_PY.json": "3d0fa64517d1f09bd6a159fd3beb059bf49d4abc5ba2b89978d97bb673ac33e01c71ef6a2458a6eb05adf8c006c38eaaa537b2eb6f78a5dacc6aa82f2377f62f",
        "l10n\/es_SV.js": "9883714b3fa0a0f1f6568a63a96b747f1b7c142500b62f2dcf85f1d8aa5460460ecc04e7e42849b6af46b25d2c224bcfbaec000b3cb56ebe94f94c5042b0e882",
        "l10n\/es_SV.json": "3d0fa64517d1f09bd6a159fd3beb059bf49d4abc5ba2b89978d97bb673ac33e01c71ef6a2458a6eb05adf8c006c38eaaa537b2eb6f78a5dacc6aa82f2377f62f",
        "l10n\/es_UY.js": "9883714b3fa0a0f1f6568a63a96b747f1b7c142500b62f2dcf85f1d8aa5460460ecc04e7e42849b6af46b25d2c224bcfbaec000b3cb56ebe94f94c5042b0e882",
        "l10n\/es_UY.json": "3d0fa64517d1f09bd6a159fd3beb059bf49d4abc5ba2b89978d97bb673ac33e01c71ef6a2458a6eb05adf8c006c38eaaa537b2eb6f78a5dacc6aa82f2377f62f",
        "l10n\/et_EE.js": "abbe93e6d5cb1873213f0fba8b9edfb44f9d3f576167d831b44cda3abc569bd332917f9a1b6b9aa43ebed4e00b7e8b12b2a231671c3490d1b811f489eba4bdf3",
        "l10n\/et_EE.json": "c40a6059c5c0832049dd566843de9dc397e2bff02eb8d88dfcb987164dd0ee891f3ebcb964388345a7f14c3fa2875e48d5218c93cb0021ecd2e052962934e049",
        "l10n\/eu.js": "aaa81b2f154a4d05daff1aa81596aaa92382cd5518b56d5dda84864a8af7d0424ec71fc8a10d124cfacfb69c77f4264481c18528e84635bc5efce14c66bcf7ba",
        "l10n\/eu.json": "6cccd9340f0f453116d200ef2cf59352683489a6e5f88600140eba1df32e81ba7d5cfe91a3ada6c87c9f23597fd2befa5d084ba3358c710b7ec08a9e8afa182b",
        "l10n\/fa.js": "21cd8d88959cbf889ad7f1dc34547d2181f0f797e12aee8e38f5191f84b69de55557e0eb228a65a0ab3d2fc0f1f7304c90d15eacd727d246c3ce3865ba59e8d6",
        "l10n\/fa.json": "dbb53d14455eb91564919dafe4ac167b35a34d931c57a6a84f44a4fc617916a55da3b60d46818302ca868dab964edf597de695708faf9b7c4452e8943614b1ff",
        "l10n\/fi.js": "3dc26d15cc3aed971789109102369823a9f193e33dde784133485db6724f21eb84ea6fe37c33bce79355e1c0f67f35ac4a00a65ad1d09f7a25cac48ada5caaa7",
        "l10n\/fi.json": "d8364a8c03fcfe80e911480a58923a9d7bef827c297f7a1ef0aa25cecd069801916796c4569adf0b89ec904ad38e0bfe34f0c3b5f8f4317be3a8e02109f6ec44",
        "l10n\/fi_FI.js": "5e63df6a42d4e93758ed14b2c46d30e10137a9e2824bb201508f490665c4b341e837df9d849e7ec880f69e7a7f50bb7957df58f185979e6bdce193ce2d2dd4c5",
        "l10n\/fi_FI.json": "461c4e6150380b7c2fa179f3e73a6612a7f822c7487f24b34d202f82c2105cf22e0d9f76fdec875ce83bf516c350545ee46d846b12fd0b25de007bef544916cb",
        "l10n\/fil.js": "6a6596741ccd788d73ef66f197fc07884fa37d25036f523a22d150ce20cfd42e190df389449752b6efdf9f330d79fad7f4642a7f6be563c33ae4e1500af30172",
        "l10n\/fil.json": "ed304fb1fa28e2d28a01f022cad834ef596da11a4aeaaca0ca906f525c840c01100db58fc55b35748337b0e72b901ea5174cac15344b6ccd9cd00a0eaaede7d2",
        "l10n\/fr.js": "4d7efab43351a24bb7d6c624f4be3bad9d8a52570c3db9c567b09504c686a7cb5387ed08b8c4e3b69c03fff52813f4604b6a013542749658e2d6077c17bf699f",
        "l10n\/fr.json": "9b3550544e91af681e7989ee7ac2eabe5a3722daba591efc504928763b43b464af32f96440a20af130d6ab1d57c21c0f2f6162aba9f7596ed9cf7cb282a5c2dd",
        "l10n\/gl.js": "ee3ba30b0d3d1cb7a427f89f830413a263a02aab70080c78fdec061c129cc8238a6256c6c25a73fe75571d2afb505f7aea6929ac907fefa78f0e58c6119b55e3",
        "l10n\/gl.json": "637644a1eda26d5a751f2f655bc9b22633f9b6b668838a5f6b2e65931026566e3a4ffd483d821420c562068835d5a73ff7c81b03927e87a00d9871770914c77c",
        "l10n\/he.js": "87e8909198a28200fcec398ea6467a9c2cb53ae1df8bbc367706c77df07a9901e17b1e8c1e3597cdf4a68e5c9f3961b32d68170f39d46f207f3ea04c4f2148f1",
        "l10n\/he.json": "721a93db81d2f2073177c912c685d40238f6767d6b9a2b304c55706951bd8ba86ad6c4d46519a4903b6d346dfab22eb76cdffcb016a9012d18a0b49739889b8c",
        "l10n\/hi.js": "bdfc3b7d99ded0dbdf743fc1bb058149cb968c610d8d243b3ccc23dd5b563c008d3e5285970813d250a7f9a24da75f13b3d764b505c7b0d999108fde0f125404",
        "l10n\/hi.json": "009ef9f99f07a60611c85b278bc64cb8c76011b0c6e4c51208d90796428a8f7d64085a0ae6b8f1a60bb409a7c59f634861c00bf4c9f12b3c64ed861aded5ab07",
        "l10n\/hr.js": "9a5acbee41c1589f0f86ac97f0c257dfaf1f1cd68404b71b5d29d7bd2ac818969c2141d71046ef95491cf3964e516d905d595c9f66fbdffd8ce0313f21acfc5f",
        "l10n\/hr.json": "68c866700fdb70d7f857995cd79cd59f69ccc8a9f14dcc26c400b38647f14419dd164dc8412d586669efc1a0d92396f118248c1455697da26bebdb033d87ce75",
        "l10n\/hu.js": "d2499545ddf95c7066ae98907d87b9f40af6f184fcc1839513c4308207fafca124c08c4e07732a26769bd8333f076e8ea8856ebc5e2d91f3cfdcb6c9bb2c5804",
        "l10n\/hu.json": "fdccac6eff310ebd456b87da6321dd9035d2574e426cbe0d3b08d244461225d08bef4ac5a4b2f2e095d8c04841e0edfd3f7a6c69ed9ad122ad94ef55e6727ff6",
        "l10n\/hu_HU.js": "4f0dac1595148405185cf54a8f8f335a22a7c7a4f25a6083c96bcd1aa0e9a0f8428b89d361dde23faa34b50147e7996a12e9cb69c2ba3739e0d7f33abc94d67b",
        "l10n\/hu_HU.json": "667a3886e9f249aa83101f3eb0938dff2fcafdac5b24392c3b53c02001646d79a729db552a4cc5e4e8afe5e7c49f069443c4e0aae895d4fcfee0074cd821947e",
        "l10n\/hy.js": "4284e3b2d2bef37f773808e74e7c85cb187ea75af81229b98cd5e9dc55c82367cb76321fd7f3849c794749d6b4b589a2ac593a5775db9edca8eace3b9a9539e9",
        "l10n\/hy.json": "5f9ceee5901b1f2eaf3c6a9df8c20efb22893bb50da687e6563fdd72254dab03a93adfa7f293f7e787a123464002a9a8aa0f7783ede04292ae49de69aa071e7a",
        "l10n\/ia.js": "97796275dd9cb0b36f631bde02ac87feace4bdf581dd2d33211595791c64fe74e91857bd8bcaa6f4d392aa5a20a54c25f53bdb3403f14c12386b5b56386b071d",
        "l10n\/ia.json": "6cdbf74297341ee8669eb760b512a85be960de821c61b22566d0f306f37d92d9a63692fee0a37e0b0a2559af43966c852e8813f97777209de7e97418e80ccccb",
        "l10n\/id.js": "b49222864e822de52bd62aa6d4ab6ce8f9ac70f3fad2deee82aec9c9f245e5bcb071b15b3809fdea3d9b9e892f7bc3b9bff36f45760b6f89b44bd8e4c815f801",
        "l10n\/id.json": "ca6cce501f3f95960acd2655da4b2a6c220c43b15213a69e1c01ecf4da37d56684d50d19fdf4c92698474d05f80a35f9fad8d3ab8eeb72585746825400d4115e",
        "l10n\/is.js": "e75e2ce3e2dc9039ca3553204cc77c8c726be0838a83737911c1c0839b5d92928d2154bdad09fc31ef1c026aeea6e8457d10cd27bed01d4766968a0cbb840d9d",
        "l10n\/is.json": "8e296ba2c30747d69fa6cdabc94e7760bf695bd8dbd1dc39c000e4ddc3a83f4d1f16c11104d19a8278256c63820fed78767467ba6d2fac2e6620fb72871c2787",
        "l10n\/it.js": "79a2dfad77f6b79f9485cf54995c93d564c48f105e3d125b65da89a9001c5af9411325d77736647610832dc06bf35cdfe8d9cea965329890dccf0165219417d0",
        "l10n\/it.json": "cd5072976d0264e887152342ccc52d7e5e5fd8e97ae44b16dcd2ae32cdb90dbab3d0e43eb825c590dab77dd6a66e8070f9eb0f793691cbf831ff4861a3b98ecd",
        "l10n\/ja.js": "1c49ef3de7dc0fab93a9295a1808e7f04fbf0cbde4cd06c12b56741333bbf197364ce28d1ea932bbe0a5809cf183780215cacd86f0dc7d04779cbf0d9c317d1b",
        "l10n\/ja.json": "a86e2328ea7e7c7d4e9e853c2ed77ec4064d80f80700dcbf80b2cad1240f7d117a9d31ecf2fff5c25379c3e94d567a02e088dd6cd4060310533baae83a375f59",
        "l10n\/ka_GE.js": "a2647ba761580502b91c6fe0d37d066bf633fc9b7d433fc34e6cb2436712b0e2f4f197ee80fb403148e01e6d9692b5b5f59ad0a94d5b55e6eeeb46effb0dac41",
        "l10n\/ka_GE.json": "3a1749baafec27c53fb2b815eb724c879983b60cd4c7c690f506049bafc67d839978c1fec6894ad7c6a37df9b5d9cad69c79962aa5332bf9e0df1aa438001f83",
        "l10n\/km.js": "f5b2e22b35e5e0d06443229142abdc9df3ab81f1c4f14b367bb30d0ef77b8eb7eef48cac15b181f5d7c4b2795eb12d8630e5e48a18803e48afa4a4fa72a25c03",
        "l10n\/km.json": "97c3d6a38207467b5ef687ba4ed752c33dfe5d57f5a12d68624b8d0a94cc7312739fae30812cf27a321f054501e84bd3d9e7b3042a1c97a97534241379f8a55b",
        "l10n\/kn.js": "37968f3a1b832539c5b9a29c63a4221bc006fa3e1792dff5b9688b1494cf3b265d7e053aad024ff1824b64f77726f337972a3d00212d9e30237e96c95532f342",
        "l10n\/kn.json": "c4b4a8d51c601c92a28f8104b2ec5bc382c54408a85d48282eb4608fcb95d0ba73a31023c59339c29ae3af909a4f4eba41fd6db4c266d25ff834ef95ded33b8a",
        "l10n\/ko.js": "c08af8ef26e953e95cbadb39db3e39d50ad54abc406e962e31448409f049e0fc84934ad402c2d5a6952232557fa7f7d6b5bf8badf3b0bfaf52092a75ade5db62",
        "l10n\/ko.json": "b0c8cec5d650a2ff309ed2e2cb95ff235d692e4475c98dd580164c482af4ed0724cb662196c5299cc4603dad015f1a6e82f765520bcb52433fe742caa7a5c87b",
        "l10n\/ku_IQ.js": "30e0ad0b10cd9f8ee20c744d6388ec87e90cb0e7234d70780aec1bcd6b0cbb553340a1bffb5de1d1a6db45ea9608a3e8f9a925d442321ef16339c6619f85022f",
        "l10n\/ku_IQ.json": "66f74edbb4ff05f63cd9c8f19930ab237409c246cfd4fc9f8d953da372a0339a25afd21e66e3f0574bc25d68b103e0a4afa5255e0f518495627463eb7c4e79f8",
        "l10n\/lb.js": "5ae9761f2090e738ba2265d88f9adafadc8b981f1253fa0fa1ec0f91a2358d6f1ff4cb99c1f49dddf17f65acd9730fc1a058aaf41ba435d6285e0a64cc630d30",
        "l10n\/lb.json": "655360da0db1d061adb0ebc769881011c052c7619d53c8374a16da07d59ab0376277c318baa0c5debb7fc306615e66f9321d6c1626eed28efc9d4d117917f966",
        "l10n\/lt_LT.js": "f7fcaabf514bfc0ecf3e3f5901ad7202358eaf0aa097d6e3104f7178b301e18dfc8b631cc110d050e6d6965e20e405f92478ae20e5c8e2650bc5072f7cfc711d",
        "l10n\/lt_LT.json": "e089af78f3ff81af8bd8af656eef2202b34f23d29d61adcdf7c6f6e21b1b50930254f569f36eb46bf757bb6828eed87502ce6250bed06ab4439507b9d75fbca4",
        "l10n\/lv.js": "4cb854e914a4c781aa9496fa062602c29a097165a72fe173245a2e30f98eb667da637989b97b6d01c67f9721244a195eaaee1e2c8e0d7ef4d1a4944168208e0f",
        "l10n\/lv.json": "44556ecbfa27fd1cddabe2da68acd59b4021e855c5f0193108f1942fa38a7005398a349de7cc3da138a641ce0257464ce9b1d90bce5a9b0f1aa44555678a4b6d",
        "l10n\/mk.js": "9a2a455ce64bde522894c0f7a7df9fa27d907f1dc2f21b0bb566f9a444272694069ce9a153368c245f243ca078f39ef1aac3e80c968279b455c5449788dbe8a2",
        "l10n\/mk.json": "79618b0c8c2ae5e89a5928609c95289effe78c8bf13f26dd8ab9396292da907ab60aefd2ce6bed0f8e2fb6fe64e09e9f5777ffd9c5385cd84bcc25e1597faea2",
        "l10n\/mn.js": "615771e04d947736a1fb36204c1e93081586778a8cdcdce58a40fad9710015ccac43ba0f7cb933155b9bfdd25e885ee567a6300d36f1e444a393d176e8099e5f",
        "l10n\/mn.json": "004daf385dc7d60a7f5e4388001e3dccaf3d4abbca8dfe138e4e2a1555bc8030c3a512652c374340257d3873902d07277734117afacf58b2396f0357f2207294",
        "l10n\/ms_MY.js": "2a8565ae5c19999303fe565f634689e57f0f44229eef591ece1c13bb72ef99b5b506bb03353e48f8d7bd1bd4908408826a7ecca934556f1caa74ef6887d9a8e0",
        "l10n\/ms_MY.json": "4cf791b1723d52eebab485b73f01d6b27f35cb4105d91f4bdb534c0c1d0ef1e5079a66dcdc09d2429d52ebbb9ea30cb41db20d53401d8f79c178fffecab69c8a",
        "l10n\/nb.js": "db48dffcf8083606da84aa3dab513baae0d6442bcb19f4c569a96fc55cc646be6b328783175936d4680ac03bba26cc3bc2b26c6a5b3e6fea8b54507cadc279f3",
        "l10n\/nb.json": "440465e9cc7e4e800d648cc817a017009ac987f31d00cd0a99f37a27852fe413cc4caf68c8c921df941ece2f71ab45961dac981de03d886465aa189f9ba5b9f8",
        "l10n\/nb_NO.js": "238efd2a05a92635060578db18e1a0f340d961b37284c0afbe7bbf843ccb1d48a1c637c4afe8a51fce9d1a5ea128ec944373cea6fc8041c3bb3d66a2d4558c64",
        "l10n\/nb_NO.json": "3a492c904886a63055797c0308f7bceebcc51420d3586cb769f27becfc5d1696df863e527b66a54fe9ca40d877129d9bafa28f27a59f6fec4d83fa4115519e83",
        "l10n\/nds.js": "4e9ab76598de8115dc19b60b3b2be9e03164d18786b451cf23eb1a6eb88cd450b85246eb8c6ef073ca10dfebe61809bf4dca217f4cc9faa4c8b43f229573dcec",
        "l10n\/nds.json": "b8e2fd3c6b4ff0f7aaf205638d8f575ab496ad7c7850be3e0b63a27c39327e2268d58b0cb51410957014c3556cb5b671d36e36b454498bd58015527811b4e2d8",
        "l10n\/nl.js": "7a7b08dbbfa63ef7f814d33753411e5e31dfa4fd3651ec323890711fc9b5a9d4888713482784021c7a26d3b44b220feb424fc22171cb913f5d33bdf6528c89c1",
        "l10n\/nl.json": "f591e031b16430708b8334dfe1af271bda5599b257bf364a02fa1a277b80d8e87e0b5ea26ec552a87a9d5ebf4df7c6a39ab235647207dde59608536faba0688e",
        "l10n\/nn_NO.js": "50b48ce379e6289bc5773befa1142c8560a0f4dc535214753caedb9a70f635dc21e1eae1f31095891a51574f45733d89528ddfd0ec1e58ba658e13424388e09b",
        "l10n\/nn_NO.json": "32ef60f8b26dd473ab6e2c71fb74ac7b210a4b4433237963763d3d31896d9fd1872fab7218c6b36b23dc7e3be1cfe3c05755cb20168d7a1c3351060562a73b11",
        "l10n\/oc.js": "5bcf49a8170df455b48a428a6fa92484918b1892ed53b25acf5f3a0c3ccdb1167378e756edaed875c4d27dca8dfe52820b3612715bc9c4136e583b84521e0f0b",
        "l10n\/oc.json": "4dd08b08c988eedfd40d92f880031db222cd504daa9226d2172f73af4219a6a4c0393087c12b637474b0b0f6ac2c0fe0a24adc5b68e7ea3d342c52aeab3962e4",
        "l10n\/pa.js": "d0a693c28a3e458065a90ee22b9a69f43ce7e40fa4fcdf3ed2a5d77ab385a3e22e7c675734a4dcbade9cde8e7637593ebca94d72175d4643cd305b15280ec47e",
        "l10n\/pa.json": "47266f6b4903b10175d03ac1b41d9fa11c44694aa985859cc47dfd8966fd0f24af4fe88b43666d87e6a6068b032a4e4896679877054c1b684093e475e5edd5a2",
        "l10n\/pl.js": "abc08a394d0194fdb8ef0a6fc5170152b43eeb2aac2a6f8c88781c1cf7d6fe48d7ede47014f7b4fbd7a5247c2d5dc788eddba61458b282edf2998a2eb7e30b08",
        "l10n\/pl.json": "c924d12357950274bb440baca7c29694fa4358f9f36b0abdeef708d04904a5f17f638f6dfda327e31b9817f035b40bcd82e1a4d6ce22f150d5dd7036871380be",
        "l10n\/pt_BR.js": "653f5563c4796629c9be5755aaa35b8867d5d2eb5dff70689fa702dadc274fb675cb0344fc0a9c4702c5f73319af1b4bf128fe7640e6c7ced127fd2da8750664",
        "l10n\/pt_BR.json": "92f50133293b29e07acb824ac4f4961f1375cfb40a3065255ebec56c3c63805daeeb2800abf97e905d832d8a7d5aecb1bfabf4063ac11eed847bbd0bb8e6f36c",
        "l10n\/pt_PT.js": "9ebe5648ff61bb40f9459be6e6eae77b43701fa666aad6e75c94afa9844226011c3fe03229783aa41e8af50bab7c4f5bc0df35eef658030e03ac80a369831b87",
        "l10n\/pt_PT.json": "0447d7a9a00dd57903b7a80b95afbf6ab1387a0533854487de0fc1edb1886a5cdeb74a405c60da8c6c203f30573915e265ec9a62d0fbb0fd7393bb4a6be0521a",
        "l10n\/ro.js": "1978f7202064b407f4ea2c77132913240414a814c21b7b3152ab9a6b59c38238533d0649408576275beb49107775629a4ffaec61c9c255baabda81bf3b855402",
        "l10n\/ro.json": "4fa909f2720a4af334821a398fbe6504c7e89c8f5e6c1022a78b0cfe1838d5567751066e33f2ef91e529488b16cd3d34b73ec47fffe61be17e93f3e053ab4c91",
        "l10n\/ru.js": "68f4b3e391d35fabd02a57344157c611444e0a26cc18053b49637f76d4917e0206dafef116d25371a4d404c5de55538129e99775163fd8ec988def199d561602",
        "l10n\/ru.json": "a5ed6aede1eabc6cc8fc8181cf2f8673de03269649c6698cf640f49205d9bf03f5f1b2842b1fbbcde4e1e0166de72ca92e0574e5e365dc7d3ca4a8e4dd522fa8",
        "l10n\/si_LK.js": "7d6cf35f1f9a36f5f8f21a1f010d6c834015f9ddafa93b1d99ff5bd36993192a2f974d7f2831925c4bc90796917eb482c95bd084d6e5a8b53024247c4c4bd8a8",
        "l10n\/si_LK.json": "8eb8215011d6b71218c9ca89398fd518dba60abd41eb0808ebd0f1191ca66d4226b71a366a65099c25ff75a325ae68e829b97392815e4381be2c10ea6330f092",
        "l10n\/sk.js": "4c315894089b21ab8b7ed7e37e0ce16254713eceaec46f4af98f2ed71f45207f09af581fcdbed13c88f7a9731b58ec57674a91ddd43ed7913ab7bbca463f26ae",
        "l10n\/sk.json": "d4081ca2bb2a08e14cdda37c65fc6f336bab76a2a585b8d6cadb61bdddf2f9d87bb4bdc870ad983cbac6c536d4cd7346106bc819c6e66c1246f828839f0abb21",
        "l10n\/sk_SK.js": "72ab1a8c2e3ea142562114b8ccd79f872b0a56c73384f2755198e39ed2c82cd24c201f4e993ba44b0d8228065585dbf0ae10444e9e4fd9d5d0e572d789355307",
        "l10n\/sk_SK.json": "14820b3d3db0dd14dd5d78df95a06cf43af6b4e7b8abf74f96ae1b160aab710c92c8ae0bd4819bf172d242e0a10792473e662f66323c54f7687f33724a857a15",
        "l10n\/sl.js": "22056ddfe824f0622655a122fce134f5d824330ff109f3ce193c7f1db492f58c379a984db782f44021c6c4a3a17ccfbd40710a9b15157fcd294c189e9b92efd8",
        "l10n\/sl.json": "a3ae408e3ba69ea9bd06e36999653e0eac2d1763c9174cb381323c2284965dc23d945240d9476cd6e3ceb7e4067e1d3368635c175e3f2a523029a7d224cadab3",
        "l10n\/sq.js": "30556a71b5b28b0520b68128b94a053a52f6d176e800d6c971832840200a2fde3537a2ded64580cb6c69db68245504772997dbe14c4adcf94622091c0a5b6559",
        "l10n\/sq.json": "a7ff861ae3dd13393fd39283694d662496522c91d50071117124a5dcfe6123e3bfa208a22901b8e88206693cf2a41a9a2e66515dcaf900da5de0618a599ee7d4",
        "l10n\/sr.js": "4c83c25491f2957c30c8c521a6e6253e0725bd5d419f0504dbcf2a7c3642269988cfd64f88c0e64a2c89a08f240832d3276ff71b56d202e800cf8e0ca34fdd37",
        "l10n\/sr.json": "e744849584f63e81910d26ece61be0b43d6beecf65112ba2b61735f783db2f0fdbe10970ff913924b7230c4c0803fad688c7caa7aa0d3f1ec4c36ff0b8990b6b",
        "l10n\/sr@latin.js": "e0a846572632dd83192289434dae92f4e22a4eeaca71aeef8bc697e47934f185af541f2d0a76cd12ac7b38d3bb106ef738803f00e706905286a4d903cc1271df",
        "l10n\/sr@latin.json": "ecc8c977e19630fa1af20b45c366f6b1662e51c981b05fb46546f207f1e3fe2e0b8509b126f30bb5f09e58d45739322dbb304e1c0b9353f75a4e49b5a7a32f72",
        "l10n\/sv.js": "2c3c284b806c74741a131ebf5f92962b24738cc2f0a1773b359bcf22b878c18add2416aa92a6a73c21cce933f25abdbb50e748019d22218c47955691274ba65a",
        "l10n\/sv.json": "5526c64cbe16bbdea71d5b75b919ca2f8fa1e053a866fe39555295449102a9568944cbec52eae909f61cb9193c47c09d045bb096136293857e787a00003de125",
        "l10n\/ta_LK.js": "53f1b4e43e95afd4b6b6284c208bd2d57abe315dff2171ef0d26514cbd18543f9929efb4733d726529447007419cc7b7f10e36b03ae36ee91358ea974e548812",
        "l10n\/ta_LK.json": "504cb07e4d2e763d476c2be70c49bea859377414cc9042188dbb4fbff88de6a74744e659ff6177ec7f71cd17a3b5675edbfb45acee19044157ffed8df6036b9a",
        "l10n\/te.js": "b2d1fad1d6691cdf2a44db60d17e992c1e23690d646f958e05d4f3a27b5ca5e81129a529e49422d396a7f4aa406d8eac7f5a0e0f8748567c7aa1c35ea7ca7e10",
        "l10n\/te.json": "59b0f595ae73291851e92921acda18a30ca3b24d479abb29d3dad7b3d44705df2073d056f4855702e67cba9b85aa0adb3901f610f3230e8fa5d7a366b50f5a3a",
        "l10n\/th.js": "748c0987f88e24789dd84a5d2eb7c7bc76031bc0a5b3874455649467b4d93821499f5ab8fd3e6a63da22eacaa49984be23669539247aa7bec5f82ecc98543343",
        "l10n\/th.json": "21f3b99994681e17600b8f06faad5cf3d3a8501dcec83fea133a6c721e5a31a22f45374c992b012e535e5ca51ed5721f87a483024a4baa1aab4373e89bd38099",
        "l10n\/th_TH.js": "83f24ef7ea54f6e055afe179bfb5fff04e2bdc93361e6762a24fc11f7777a1a4b8af0cffe5977210476f2f4bfa19846ebabbb7c9a9eadfd0f8d8676629b259a4",
        "l10n\/th_TH.json": "4044d51436051618fed7802d2c2da800a3d558b24df6d71ee4510ecbfd58a03f7b32c558758c885670003a332dd334ac27e16daac364f0ecc5e7bd94f97dcef1",
        "l10n\/tr.js": "47cbb6c4e6d32c2a412608671224b697dceff7c75c44e64d5d01df2cb43e13ca1263644ce3de98ccf3808a94741cb5b2627a475f1af29bf468f2a41c64f874b8",
        "l10n\/tr.json": "3d9ea0f200985b2f61b8632e93aa08bf1f8f50583f9d384d54a0bd82fa38c41bf04a7d5bb88dd3a56906ce398a078f1d72dd75e87bfe5ce66522a5a9466d3990",
        "l10n\/ug.js": "885fb0ee7a428f2d6855fafa344eea2aa4776b6671fba5f2ceb7a5dafe03f10f32ff138a8d3faa5e1235b0a202adbf7d68140fe3392fe523c3b28a60c9e06694",
        "l10n\/ug.json": "7182cae657a04db104e1a344b17215c71e8be6480b5cd9fea6f56a37cd23bc664e8a108e5740ce1b284fc16d65e9dd61a1e0a726cc7044cc53b1351c7cf61b02",
        "l10n\/uk.js": "f64fcfb21c3e6bb2e062d5b8ef80f1b054366568f5e8a951102f2dc9e7359a529f31c6c0b0863d73cd7cc0f03ab92b336c7b305e939ce3e3189faef3759d7c71",
        "l10n\/uk.json": "55f9747ed5aeb95cbfec62fdcfbfb7efca636f2ddefbf898d6ebfa1af7367668443934f86cf41c35817dd2bb3ca8005316680486d7df8fc65b699d62f228f2e1",
        "l10n\/ur_PK.js": "927ce33ab0268b3f1a52d6f189080858b2bb5e75432c148bc7c3de00c5e051f92c7e1e573640a2e40790d745886db2cacfe869fb77b29d6dd7326132774282e5",
        "l10n\/ur_PK.json": "10635302cf0e2f4c8ce27f35b5263c01c3ad7b3a8e2c7dc7fd02fa30620fe579b03dab3d074ce6280463e568859e7406a471203c47d716b10927fefe4bcf7166",
        "l10n\/vi.js": "d8c4004e274a45226fe16440cb37bab5dd05cdd77c358ace7d0c04722ff5eee6ecdd824de84cac688ee30d467bd3ea178295c918122b39b1e0b4b89b267c591c",
        "l10n\/vi.json": "f3ac10a396b85a33c3e3ef27e038b2306a53c1d1928b8e6bdd4a46eb23731867af5131dc39e794da8cc2c19a0765d57b1392a2286f6958f5462b4d9b0755a02d",
        "l10n\/zh_CN.js": "4eb6a5e6c4b80fc1dadb2c376edef3fdd4e3beab5e34cd1b9db349e1723eb03c591f1c20c642ddbd6a03f0ff9c7f46ada35126223dc22617a27a82a6ecb886b7",
        "l10n\/zh_CN.json": "8336106f8d1022cec8e2066743a56133171f84af1ddde6975eaf26d3fec96559c799f224969fa9bd1347e759a244829f159178f3d0ffa40db47356d2091d1ae8",
        "l10n\/zh_HK.js": "2f6988dc1130266e8f27341fda5a21df8bdacb8a01de557ec347dee4ad46b1d96efd22a0e7c072e132e42196ff9e6982d38813bbc0a44645ae6ea39cb70202a8",
        "l10n\/zh_HK.json": "6581c70450b55b1c2a16c37632467494ebcac7e1cf8fea5fbdf704433fb0a89c8a1a994bbf07e20c0f51e62dafdb19332f2ad447ab842517833fd9f3eb072feb",
        "l10n\/zh_TW.js": "926bcc20511d4255f4676e60c78f2b89cfe5a53f6198047cf813bbeeba03316f856e4e5001ab1cec0979928743bdcaa7567e26be66dfdc191cad86815bc1b1d1",
        "l10n\/zh_TW.json": "ff3990d89936d60ce43cb3b2bcfd25d12c0748199fb14f250230050ac7aae3d8e3e1035fb946a2880e0dd336fe8e3a60932c0e08aa08cd9198fc88911f328b1d",
        "lib\/AppInfo\/Application.php": "5a85825915c6577f64e7040dfd874949413f295443f371ae34566e49c977c18494bf2061f1687374a88623002abeb0e862cf379554526eec0063e3adbf42070b",
        "lib\/BackgroundJob\/ExpireTrash.php": "c35a4b4d3f191871d5a5640ebb650c3b2cf1371c417456bccc21f848e183e6970fa5b5b30af0bf8149cd4607167008f8226290850cabeb8507c5a6cc88690a14",
        "lib\/Capabilities.php": "a5f12f525bf1a88c921d1ede76c3b3a6536ad67c76c2f6029d483eb0d16d4db3e84d429f4a550f8cd336c0c5ad303f22e017c0b3b1be051b09cbbba4c2ddbcac",
        "lib\/Command\/CleanUp.php": "f6a83273f6b0b9a4105f2fe8f4d7cff5e1ee14007e539c9824a5c95bd515ecf0bc3ed39aa4daf627200be58f75f3b574d63a36b2c411feb1e8df2e90f3bbaa4d",
        "lib\/Command\/Expire.php": "4513cbbf628475475da7c41cc0a31cd7e008b6bb27350eef72a4dfa752d0bd8ad89030b6f8467af64ea4318835e79a8501b514d97640912b0e1cfa1fbad956d2",
        "lib\/Command\/ExpireTrash.php": "6f534c5a96b82752f28edb5f26c5c4fcb8f09473482e5a5a9a773a0dca78d815001364e5b221fb96230e81e6635c03edd8f479eeb6a63abae6e1c5598844e44c",
        "lib\/Controller\/PreviewController.php": "8e7caf2dc78e410ecd09290098203ccddecde30a8f1075a3d21594508eeec401230087390360c6cbf7fd589903d157722e9e3b9037746ee2b561379752443396",
        "lib\/Events\/MoveToTrashEvent.php": "148f97ffcc4288e98ef50584db94b52afa9492ead498b8ac18585e3677e2bd9e23e1edb135b30e6a4f46c5db0285be084b3ebd5f0d13a33fc850a82c8aeeb446",
        "lib\/Exceptions\/CopyRecursiveException.php": "b0247b6bd57bdfe19aa288f1d611f87456f2dc45fbcdb4e806eb0a1022fc28118ae040e4a79886045d9bbbce50eebb572a6f76d9b891c1833a72640dd31f617b",
        "lib\/Expiration.php": "81b99a5f059117cc2f7ecbfbf39b8c24a00957969487ffb03baf14645bd463cd43fd763b35a07be906abf4f205b4eff0658102444af0e98936e7c19b6ee678cb",
        "lib\/Helper.php": "f98281c44cb977b254c5c729f4c3a0b36629273e67346b6b8943ff418e020e76361d30fa39cebf3ebdca27a39447b6eb5ea1915054425a1482a57f0f64752d4a",
        "lib\/Hooks.php": "35dc3c59d6b0d3c523119b86d6875621670d4eea51d2e144d0bf72f0217557235bcdabefc42b958dde16eb84dea108120fbba9a92d5097eba2aeb37c750d01a5",
        "lib\/Storage.php": "73536e2c810e8c37f3565ede693e52bc13543c69d39b3d59fb22bc506b0a4e35817303271e1715525f259665c0c55a132ee2a970ff2ffce279f96955f11dcdd4",
        "lib\/Trashbin.php": "ee9e012ffadb6ce047def2caafbefff44fd2bfee643ba9b767f96aa3a8ded94da3b19a29c6c8501998ababa22f7c9471de5a60591d7c82c67cab3343e000f50f",
        "list.php": "5fbca46527fb89e0f6e400ce34d8154f949e217a7cae454e4b0c6747be743ca1c3ff0c5d192669a7425479a436ac41c15d13313b1c7bc297fbf3398702421088",
        "templates\/index.php": "1e30a9089d7169852d66e0d5643f6736fc79a344019efd2d3952cfd11399c5193085571f6e3cba7bc9bb079e5eb3c5220bdfba70dd256973b79fca9cf3253628"
    },
    "signature": "CwQSUj2\/GGCTCKVmwjl5UBok2R2xXXf88gduQ41LsJiZ\/Jx11TcyCKctzFXHtDpc1ZlB8VLZ1Y2b0KaQUmHi5d9VgBUFfJ9Cn8saFKuXxJ6xr4FOMm5QufJpgNuZTl4mSa3VTQDuJyjVGp456GTADhEIk2VoPG3ueoOdiQ\/KkpW5ujauLfb0ZA3wtH3q7Yk1FQivosPnVTLGf\/b6jPKkekoMGpXHf21YZwpVw2BVD4aEuZgrh8sXhhOkLSUFGvqxUf9DYtqV04EeJroV9VVi\/SXlmWdNUwli6e5bzaeG7KzuRVUgVVtDhJNNlG\/YWacCd5Fqq3Uym+Fl3TCmZnsndw==",
    "certificate": "-----BEGIN CERTIFICATE-----\r\nMIIEojCCA4qgAwIBAgICEAAwDQYJKoZIhvcNAQELBQAwezELMAkGA1UEBhMCREUx\r\nGzAZBgNVBAgMEkJhZGVuLVd1ZXJ0dGVtYmVyZzEXMBUGA1UECgwOTmV4dGNsb3Vk\r\nIEdtYkgxNjA0BgNVBAMMLU5leHRjbG91ZCBDb2RlIFNpZ25pbmcgSW50ZXJtZWRp\r\nYXRlIEF1dGhvcml0eTAeFw0xNjA2MTIyMTA1MDZaFw00MTA2MDYyMTA1MDZaMGYx\r\nCzAJBgNVBAYTAkRFMRswGQYDVQQIDBJCYWRlbi1XdWVydHRlbWJlcmcxEjAQBgNV\r\nBAcMCVN0dXR0Z2FydDEXMBUGA1UECgwOTmV4dGNsb3VkIEdtYkgxDTALBgNVBAMM\r\nBGNvcmUwggEiMA0GCSqGSIb3DQEBAQUAA4IBDwAwggEKAoIBAQDUxcrn2DC892IX\r\n8+dJjZVh9YeHF65n2ha886oeAizOuHBdWBfzqt+GoUYTOjqZF93HZMcwy0P+xyCf\r\nQqak5Ke9dybN06RXUuGP45k9UYBp03qzlUzCDalrkj+Jd30LqcSC1sjRTsfuhc+u\r\nvH1IBuBnf7SMUJUcoEffbmmpAPlEcLHxlUGlGnz0q1e8UFzjbEFj3JucMO4ys35F\r\nqZS4dhvCngQhRW3DaMlQLXEUL9k3kFV+BzlkPzVZEtSmk4HJujFCnZj1vMcjQBg\/\r\nBqq1HCmUB6tulnGcxUzt\/Z\/oSIgnuGyENeke077W3EyryINL7EIyD4Xp7sxLizTM\r\nFCFCjjH1AgMBAAGjggFDMIIBPzAJBgNVHRMEAjAAMBEGCWCGSAGG+EIBAQQEAwIG\r\nQDAzBglghkgBhvhCAQ0EJhYkT3BlblNTTCBHZW5lcmF0ZWQgU2VydmVyIENlcnRp\r\nZmljYXRlMB0GA1UdDgQWBBQwc1H9AL8pRlW2e5SLCfPPqtqc0DCBpQYDVR0jBIGd\r\nMIGagBRt6m6qqTcsPIktFz79Ru7DnnjtdKF+pHwwejELMAkGA1UEBhMCREUxGzAZ\r\nBgNVBAgMEkJhZGVuLVd1ZXJ0dGVtYmVyZzESMBAGA1UEBwwJU3R1dHRnYXJ0MRcw\r\nFQYDVQQKDA5OZXh0Y2xvdWQgR21iSDEhMB8GA1UEAwwYTmV4dGNsb3VkIFJvb3Qg\r\nQXV0aG9yaXR5ggIQADAOBgNVHQ8BAf8EBAMCBaAwEwYDVR0lBAwwCgYIKwYBBQUH\r\nAwEwDQYJKoZIhvcNAQELBQADggEBADZ6+HV\/+0NEH3nahTBFxO6nKyR\/VWigACH0\r\nnaV0ecTcoQwDjKDNNFr+4S1WlHdwITlnNabC7v9rZ\/6QvbkrOTuO9fOR6azp1EwW\r\n2pixWqj0Sb9\/dSIVRpSq+jpBE6JAiX44dSR7zoBxRB8DgVO2Afy0s80xEpr5JAzb\r\nNYuPS7M5UHdAv2dr16fDcDIvn+vk92KpNh1NTeZFjBbRVQ9DXrgkRGW34TK8uSLI\r\nYG6jnfJ6eJgTaO431ywWPXNg1mUMaT\/+QBOgB299QVCKQU+lcZWptQt+RdsJUm46\r\nNY\/nARy4Oi4uOe88SuWITj9KhrFmEvrUlgM8FvoXA1ldrR7KiEg=\r\n-----END CERTIFICATE-----"
}